<?xml version="1.0" encoding="UTF-8" standalone="no"?>
<!DOCTYPE svg PUBLIC "-//W3C//DTD SVG 1.1//EN"
 "http://www.w3.org/Graphics/SVG/1.1/DTD/svg11.dtd">
<!-- Generated by graphviz version 5.0.0 (0)
 -->
<!-- Title: G Pages: 1 -->
<svg width="2382pt" height="2095pt"
 viewBox="0.00 0.00 2382.23 2095.49" xmlns="http://www.w3.org/2000/svg" xmlns:xlink="http://www.w3.org/1999/xlink">
<g id="graph0" class="graph" transform="scale(1 1) rotate(0) translate(4 2091.49)">
<title>G</title>
<polygon fill="white" stroke="transparent" points="-4,4 -4,-2091.49 2378.23,-2091.49 2378.23,4 -4,4"/>
<!-- sym.malloc -->
<g id="node1" class="node">
<title>sym.malloc</title>
<ellipse fill="cyan" stroke="cyan" cx="52.65" cy="-568" rx="52.79" ry="18"/>
<text text-anchor="middle" x="52.65" y="-564.3" font-family="Times,serif" font-size="14.00">sym.malloc</text>
</g>
<!-- sym.__aarch64_cas4_acq -->
<g id="node2" class="node">
<title>sym.__aarch64_cas4_acq</title>
<ellipse fill="none" stroke="black" cx="1195.21" cy="-706" rx="101.28" ry="18"/>
<text text-anchor="middle" x="1195.21" y="-702.3" font-family="Times,serif" font-size="14.00">sym.__aarch64_cas4_acq</text>
</g>
<!-- sym.malloc&#45;&gt;sym.__aarch64_cas4_acq -->
<g id="edge1" class="edge">
<title>sym.malloc&#45;&gt;sym.__aarch64_cas4_acq</title>
<path fill="none" stroke="black" d="M68.02,-585.5C83.89,-603.42 111.19,-630.37 141.29,-643 438.65,-767.8 541.96,-691.99 864.14,-706 937.5,-709.19 1020.12,-709.19 1084.35,-708.39"/>
<polygon fill="black" stroke="black" points="1084.54,-711.89 1094.5,-708.25 1084.45,-704.89 1084.54,-711.89"/>
</g>
<!-- sym._int_malloc -->
<g id="node3" class="node">
<title>sym._int_malloc</title>
<ellipse fill="none" stroke="black" cx="515.91" cy="-1282" rx="70.69" ry="18"/>
<text text-anchor="middle" x="515.91" y="-1278.3" font-family="Times,serif" font-size="14.00">sym._int_malloc</text>
</g>
<!-- sym.malloc&#45;&gt;sym._int_malloc -->
<g id="edge2" class="edge">
<title>sym.malloc&#45;&gt;sym._int_malloc</title>
<path fill="none" stroke="black" d="M58.07,-586.16C68.61,-627.62 97.67,-731.74 141.29,-810 246.39,-998.54 425.1,-1190.09 490.23,-1257.07"/>
<polygon fill="black" stroke="black" points="487.75,-1259.54 497.24,-1264.25 492.76,-1254.65 487.75,-1259.54"/>
</g>
<!-- sym.malloc_printerr -->
<g id="node7" class="node">
<title>sym.malloc_printerr</title>
<ellipse fill="none" stroke="black" cx="1728.02" cy="-1199" rx="83.39" ry="18"/>
<text text-anchor="middle" x="1728.02" y="-1195.3" font-family="Times,serif" font-size="14.00">sym.malloc_printerr</text>
</g>
<!-- sym.malloc&#45;&gt;sym.malloc_printerr -->
<g id="edge134" class="edge">
<title>sym.malloc&#45;&gt;sym.malloc_printerr</title>
<path fill="none" stroke="black" d="M55.36,-586.04C71.55,-751.23 203.78,-1995 514.91,-1995 514.91,-1995 514.91,-1995 745.94,-1995 992.76,-1995 863.92,-1671.15 1079.52,-1551 1178.51,-1495.84 1494.92,-1570.52 1587.38,-1505 1682.44,-1437.64 1714.15,-1289.4 1723.51,-1227.27"/>
<polygon fill="black" stroke="black" points="1727.02,-1227.44 1724.96,-1217.05 1720.09,-1226.46 1727.02,-1227.44"/>
</g>
<!-- sym.__aarch64_swp4_rel -->
<g id="node26" class="node">
<title>sym.__aarch64_swp4_rel</title>
<ellipse fill="none" stroke="black" cx="1195.21" cy="-376" rx="101.28" ry="18"/>
<text text-anchor="middle" x="1195.21" y="-372.3" font-family="Times,serif" font-size="14.00">sym.__aarch64_swp4_rel</text>
</g>
<!-- sym.malloc&#45;&gt;sym.__aarch64_swp4_rel -->
<g id="edge85" class="edge">
<title>sym.malloc&#45;&gt;sym.__aarch64_swp4_rel</title>
<path fill="none" stroke="black" d="M58.21,-549.89C67.57,-516.85 92.31,-447.21 141.29,-415 295.75,-313.43 862.66,-347.93 1094.45,-366.96"/>
<polygon fill="black" stroke="black" points="1094.3,-370.46 1104.56,-367.8 1094.88,-363.48 1094.3,-370.46"/>
</g>
<!-- sym.__lll_lock_wake_private -->
<g id="node27" class="node">
<title>sym.__lll_lock_wake_private</title>
<ellipse fill="none" stroke="black" cx="1195.21" cy="-322" rx="115.88" ry="18"/>
<text text-anchor="middle" x="1195.21" y="-318.3" font-family="Times,serif" font-size="14.00">sym.__lll_lock_wake_private</text>
</g>
<!-- sym.malloc&#45;&gt;sym.__lll_lock_wake_private -->
<g id="edge133" class="edge">
<title>sym.malloc&#45;&gt;sym.__lll_lock_wake_private</title>
<path fill="none" stroke="black" d="M55.67,-549.7C63.49,-482.01 93.66,-246.87 141.29,-191 255.07,-57.54 339.53,-64 514.91,-64 514.91,-64 514.91,-64 745.94,-64 931.03,-64 1108.67,-231.26 1170.87,-296.43"/>
<polygon fill="black" stroke="black" points="1168.46,-298.99 1177.87,-303.86 1173.56,-294.18 1168.46,-298.99"/>
</g>
<!-- sym.__libc_assert_fail -->
<g id="node31" class="node">
<title>sym.__libc_assert_fail</title>
<ellipse fill="none" stroke="black" cx="1467.14" cy="-809" rx="90.98" ry="18"/>
<text text-anchor="middle" x="1467.14" y="-805.3" font-family="Times,serif" font-size="14.00">sym.__libc_assert_fail</text>
</g>
<!-- sym.malloc&#45;&gt;sym.__libc_assert_fail -->
<g id="edge128" class="edge">
<title>sym.malloc&#45;&gt;sym.__libc_assert_fail</title>
<path fill="none" stroke="black" d="M61,-586.08C73.2,-613.59 100.44,-665.33 141.29,-690 243,-751.43 287.9,-714.51 406.07,-727 807.02,-769.37 909.36,-755.6 1310.9,-792 1332.79,-793.98 1356.39,-796.42 1378.42,-798.82"/>
<polygon fill="black" stroke="black" points="1378.09,-802.3 1388.42,-799.91 1378.86,-795.34 1378.09,-802.3"/>
</g>
<!-- sym.__lll_lock_wait_private -->
<g id="node33" class="node">
<title>sym.__lll_lock_wait_private</title>
<ellipse fill="none" stroke="black" cx="1195.21" cy="-430" rx="112.38" ry="18"/>
<text text-anchor="middle" x="1195.21" y="-426.3" font-family="Times,serif" font-size="14.00">sym.__lll_lock_wait_private</text>
</g>
<!-- sym.malloc&#45;&gt;sym.__lll_lock_wait_private -->
<g id="edge132" class="edge">
<title>sym.malloc&#45;&gt;sym.__lll_lock_wait_private</title>
<path fill="none" stroke="black" d="M66.18,-550.47C81.41,-530.77 109.1,-499.76 141.29,-486 474.55,-343.57 922.09,-387.95 1107.83,-415.38"/>
<polygon fill="black" stroke="black" points="1107.41,-418.85 1117.82,-416.87 1108.45,-411.93 1107.41,-418.85"/>
</g>
<!-- sym.ptmalloc_init.part.0 -->
<g id="node53" class="node">
<title>sym.ptmalloc_init.part.0</title>
<ellipse fill="none" stroke="black" cx="255.68" cy="-218" rx="98.58" ry="18"/>
<text text-anchor="middle" x="255.68" y="-214.3" font-family="Times,serif" font-size="14.00">sym.ptmalloc_init.part.0</text>
</g>
<!-- sym.malloc&#45;&gt;sym.ptmalloc_init.part.0 -->
<g id="edge86" class="edge">
<title>sym.malloc&#45;&gt;sym.ptmalloc_init.part.0</title>
<path fill="none" stroke="black" d="M52.92,-549.92C51.8,-496.16 56.11,-335.7 141.29,-250 148.48,-242.76 157.18,-237.13 166.51,-232.76"/>
<polygon fill="black" stroke="black" points="168.15,-235.87 176.03,-228.78 165.46,-229.41 168.15,-235.87"/>
</g>
<!-- sym.tcache_init.part.0 -->
<g id="node58" class="node">
<title>sym.tcache_init.part.0</title>
<ellipse fill="none" stroke="black" cx="255.68" cy="-568" rx="89.88" ry="18"/>
<text text-anchor="middle" x="255.68" y="-564.3" font-family="Times,serif" font-size="14.00">sym.tcache_init.part.0</text>
</g>
<!-- sym.malloc&#45;&gt;sym.tcache_init.part.0 -->
<g id="edge92" class="edge">
<title>sym.malloc&#45;&gt;sym.tcache_init.part.0</title>
<path fill="none" stroke="black" d="M105.42,-568C120.78,-568 138.15,-568 155.47,-568"/>
<polygon fill="black" stroke="black" points="155.65,-571.5 165.65,-568 155.65,-564.5 155.65,-571.5"/>
</g>
<!-- sym.get_free_list -->
<g id="node59" class="node">
<title>sym.get_free_list</title>
<ellipse fill="none" stroke="black" cx="953.83" cy="-568" rx="72.29" ry="18"/>
<text text-anchor="middle" x="953.83" y="-564.3" font-family="Times,serif" font-size="14.00">sym.get_free_list</text>
</g>
<!-- sym.malloc&#45;&gt;sym.get_free_list -->
<g id="edge129" class="edge">
<title>sym.malloc&#45;&gt;sym.get_free_list</title>
<path fill="none" stroke="black" d="M88.48,-581.36C104.34,-586.75 123.5,-592.32 141.29,-595 235.69,-609.21 710.67,-590.25 828.14,-582 844.69,-580.84 862.44,-579.13 879.2,-577.3"/>
<polygon fill="black" stroke="black" points="879.94,-580.74 889.49,-576.15 879.16,-573.78 879.94,-580.74"/>
</g>
<!-- sym.arena_get2.part.0 -->
<g id="node61" class="node">
<title>sym.arena_get2.part.0</title>
<ellipse fill="none" stroke="black" cx="953.83" cy="-622" rx="89.88" ry="18"/>
<text text-anchor="middle" x="953.83" y="-618.3" font-family="Times,serif" font-size="14.00">sym.arena_get2.part.0</text>
</g>
<!-- sym.malloc&#45;&gt;sym.arena_get2.part.0 -->
<g id="edge130" class="edge">
<title>sym.malloc&#45;&gt;sym.arena_get2.part.0</title>
<path fill="none" stroke="black" d="M77.79,-583.88C94.78,-594.09 118.46,-606.44 141.29,-612 400.42,-675.08 720,-650.35 868.99,-633.17"/>
<polygon fill="black" stroke="black" points="869.46,-636.64 878.98,-632 868.64,-629.69 869.46,-636.64"/>
</g>
<!-- sym.arena_get_retry -->
<g id="node65" class="node">
<title>sym.arena_get_retry</title>
<ellipse fill="none" stroke="black" cx="744.94" cy="-484" rx="83.39" ry="18"/>
<text text-anchor="middle" x="744.94" y="-480.3" font-family="Times,serif" font-size="14.00">sym.arena_get_retry</text>
</g>
<!-- sym.malloc&#45;&gt;sym.arena_get_retry -->
<g id="edge131" class="edge">
<title>sym.malloc&#45;&gt;sym.arena_get_retry</title>
<path fill="none" stroke="black" d="M91.4,-555.55C106.78,-550.69 124.8,-545.27 141.29,-541 257.73,-510.82 286.46,-497.69 406.07,-485 489.71,-476.13 585.66,-476.88 653.88,-479.26"/>
<polygon fill="black" stroke="black" points="654.04,-482.77 664.16,-479.64 654.3,-475.77 654.04,-482.77"/>
</g>
<!-- sym.__libc_mtag_tag_region -->
<g id="node66" class="node">
<title>sym.__libc_mtag_tag_region</title>
<ellipse fill="none" stroke="black" cx="255.68" cy="-18" rx="114.28" ry="18"/>
<text text-anchor="middle" x="255.68" y="-14.3" font-family="Times,serif" font-size="14.00">sym.__libc_mtag_tag_region</text>
</g>
<!-- sym.malloc&#45;&gt;sym.__libc_mtag_tag_region -->
<g id="edge127" class="edge">
<title>sym.malloc&#45;&gt;sym.__libc_mtag_tag_region</title>
<path fill="none" stroke="black" d="M54.19,-549.86C57.05,-467.11 72.89,-126.18 141.29,-50 146.82,-43.85 153.42,-38.84 160.64,-34.77"/>
<polygon fill="black" stroke="black" points="162.65,-37.68 170.06,-30.1 159.54,-31.4 162.65,-37.68"/>
</g>
<!-- sym.malloc_consolidate -->
<g id="node4" class="node">
<title>sym.malloc_consolidate</title>
<ellipse fill="none" stroke="black" cx="1195.21" cy="-1080" rx="96.68" ry="18"/>
<text text-anchor="middle" x="1195.21" y="-1076.3" font-family="Times,serif" font-size="14.00">sym.malloc_consolidate</text>
</g>
<!-- sym._int_malloc&#45;&gt;sym.malloc_consolidate -->
<g id="edge3" class="edge">
<title>sym._int_malloc&#45;&gt;sym.malloc_consolidate</title>
<path fill="none" stroke="black" d="M547.55,-1265.78C606.94,-1235.04 742.54,-1168.27 864.14,-1133 941.28,-1110.63 1031.48,-1096.95 1098.08,-1089.11"/>
<polygon fill="black" stroke="black" points="1098.61,-1092.58 1108.14,-1087.95 1097.8,-1085.62 1098.61,-1092.58"/>
</g>
<!-- sym.unlink_chunk.constprop.0 -->
<g id="node6" class="node">
<title>sym.unlink_chunk.constprop.0</title>
<ellipse fill="none" stroke="black" cx="1467.14" cy="-1004" rx="120.48" ry="18"/>
<text text-anchor="middle" x="1467.14" y="-1000.3" font-family="Times,serif" font-size="14.00">sym.unlink_chunk.constprop.0</text>
</g>
<!-- sym._int_malloc&#45;&gt;sym.unlink_chunk.constprop.0 -->
<g id="edge83" class="edge">
<title>sym._int_malloc&#45;&gt;sym.unlink_chunk.constprop.0</title>
<path fill="none" stroke="black" d="M530.58,-1264.38C554.23,-1235.06 605.66,-1176.19 661.75,-1143 829.22,-1043.9 887.49,-1043.44 1079.52,-1012 1167.02,-997.67 1267.14,-996 1343.57,-997.74"/>
<polygon fill="black" stroke="black" points="1343.63,-1001.24 1353.71,-997.99 1343.8,-994.24 1343.63,-1001.24"/>
</g>
<!-- sym._int_malloc&#45;&gt;sym.malloc_printerr -->
<g id="edge19" class="edge">
<title>sym._int_malloc&#45;&gt;sym.malloc_printerr</title>
<path fill="none" stroke="black" d="M524.66,-1300.06C542.36,-1338.68 589.83,-1428.61 661.75,-1464 754.04,-1509.42 1499.76,-1528.87 1587.38,-1475 1677.6,-1419.53 1711.69,-1285.72 1722.58,-1227.19"/>
<polygon fill="black" stroke="black" points="1726.06,-1227.64 1724.36,-1217.18 1719.17,-1226.42 1726.06,-1227.64"/>
</g>
<!-- sym.__aarch64_cas8_acq -->
<g id="node17" class="node">
<title>sym.__aarch64_cas8_acq</title>
<ellipse fill="none" stroke="black" cx="1195.21" cy="-1816" rx="101.28" ry="18"/>
<text text-anchor="middle" x="1195.21" y="-1812.3" font-family="Times,serif" font-size="14.00">sym.__aarch64_cas8_acq</text>
</g>
<!-- sym._int_malloc&#45;&gt;sym.__aarch64_cas8_acq -->
<g id="edge18" class="edge">
<title>sym._int_malloc&#45;&gt;sym.__aarch64_cas8_acq</title>
<path fill="none" stroke="black" d="M521.11,-1300.07C533.8,-1351.02 576.2,-1497.68 661.75,-1584 789.39,-1712.79 1000.43,-1775.12 1114.73,-1800.81"/>
<polygon fill="black" stroke="black" points="1114.29,-1804.3 1124.81,-1803.04 1115.8,-1797.46 1114.29,-1804.3"/>
</g>
<!-- sym.sysmalloc -->
<g id="node18" class="node">
<title>sym.sysmalloc</title>
<ellipse fill="none" stroke="black" cx="744.94" cy="-1437" rx="63.89" ry="18"/>
<text text-anchor="middle" x="744.94" y="-1433.3" font-family="Times,serif" font-size="14.00">sym.sysmalloc</text>
</g>
<!-- sym._int_malloc&#45;&gt;sym.sysmalloc -->
<g id="edge20" class="edge">
<title>sym._int_malloc&#45;&gt;sym.sysmalloc</title>
<path fill="none" stroke="black" d="M541.64,-1298.88C582.77,-1326.97 665.27,-1383.29 711.19,-1414.64"/>
<polygon fill="black" stroke="black" points="709.36,-1417.62 719.59,-1420.37 713.3,-1411.84 709.36,-1417.62"/>
</g>
<!-- sym._int_malloc&#45;&gt;sym.__libc_assert_fail -->
<g id="edge84" class="edge">
<title>sym._int_malloc&#45;&gt;sym.__libc_assert_fail</title>
<path fill="none" stroke="black" d="M525.78,-1264.11C546.05,-1224.36 598.91,-1126.93 661.75,-1060 809.4,-902.76 868.78,-858.98 1079.52,-813 1179.32,-791.23 1297.07,-793.92 1376.18,-799.69"/>
<polygon fill="black" stroke="black" points="1376.36,-803.22 1386.59,-800.49 1376.89,-796.24 1376.36,-803.22"/>
</g>
<!-- sym.memset -->
<g id="node36" class="node">
<title>sym.memset</title>
<ellipse fill="cyan" stroke="cyan" cx="1195.21" cy="-2022" rx="56.59" ry="18"/>
<text text-anchor="middle" x="1195.21" y="-2018.3" font-family="Times,serif" font-size="14.00">sym.memset</text>
</g>
<!-- sym._int_malloc&#45;&gt;sym.memset -->
<g id="edge80" class="edge">
<title>sym._int_malloc&#45;&gt;sym.memset</title>
<path fill="none" stroke="black" d="M520.45,-1299.98C538.48,-1386.44 628.7,-1761.91 864.14,-1925 945.68,-1981.49 1060.34,-2005.51 1130.83,-2015.41"/>
<polygon fill="black" stroke="black" points="1130.52,-2018.9 1140.9,-2016.77 1131.46,-2011.96 1130.52,-2018.9"/>
</g>
<!-- sym.alloc_perturb -->
<g id="node52" class="node">
<title>sym.alloc_perturb</title>
<ellipse fill="none" stroke="black" cx="953.83" cy="-2041" rx="75.29" ry="18"/>
<text text-anchor="middle" x="953.83" y="-2037.3" font-family="Times,serif" font-size="14.00">sym.alloc_perturb</text>
</g>
<!-- sym._int_malloc&#45;&gt;sym.alloc_perturb -->
<g id="edge81" class="edge">
<title>sym._int_malloc&#45;&gt;sym.alloc_perturb</title>
<path fill="none" stroke="black" d="M518.62,-1300.09C527.88,-1394.86 574.99,-1833.52 661.75,-1933 715.5,-1994.63 807.77,-2021.14 874.03,-2032.52"/>
<polygon fill="black" stroke="black" points="873.58,-2035.99 884.02,-2034.15 874.71,-2029.08 873.58,-2035.99"/>
</g>
<!-- sym.__aarch64_swp8_acq -->
<g id="node5" class="node">
<title>sym.__aarch64_swp8_acq</title>
<ellipse fill="none" stroke="black" cx="2179.59" cy="-1050" rx="104.78" ry="18"/>
<text text-anchor="middle" x="2179.59" y="-1046.3" font-family="Times,serif" font-size="14.00">sym.__aarch64_swp8_acq</text>
</g>
<!-- sym.malloc_consolidate&#45;&gt;sym.__aarch64_swp8_acq -->
<g id="edge4" class="edge">
<title>sym.malloc_consolidate&#45;&gt;sym.__aarch64_swp8_acq</title>
<path fill="none" stroke="black" d="M1288.23,-1074.72C1307.61,-1073.72 1327.92,-1072.75 1346.9,-1072 1603.58,-1061.79 1905.01,-1055.15 2065.14,-1052.05"/>
<polygon fill="black" stroke="black" points="2065.55,-1055.54 2075.48,-1051.85 2065.41,-1048.54 2065.55,-1055.54"/>
</g>
<!-- sym.malloc_consolidate&#45;&gt;sym.unlink_chunk.constprop.0 -->
<g id="edge5" class="edge">
<title>sym.malloc_consolidate&#45;&gt;sym.unlink_chunk.constprop.0</title>
<path fill="none" stroke="black" d="M1251.21,-1065.25C1270.18,-1060.01 1291.53,-1053.93 1310.9,-1048 1327.03,-1043.07 1330.75,-1040.85 1346.9,-1036 1362.62,-1031.27 1379.61,-1026.51 1395.7,-1022.16"/>
<polygon fill="black" stroke="black" points="1396.84,-1025.48 1405.59,-1019.5 1395.02,-1018.72 1396.84,-1025.48"/>
</g>
<!-- sym.malloc_consolidate&#45;&gt;sym.malloc_printerr -->
<g id="edge17" class="edge">
<title>sym.malloc_consolidate&#45;&gt;sym.malloc_printerr</title>
<path fill="none" stroke="black" d="M1289.14,-1075.45C1369.97,-1074.31 1489.21,-1079.53 1587.38,-1112 1628.98,-1125.76 1670.86,-1154.27 1697.75,-1174.91"/>
<polygon fill="black" stroke="black" points="1695.9,-1177.9 1705.94,-1181.3 1700.21,-1172.39 1695.9,-1177.9"/>
</g>
<!-- sym.unlink_chunk.constprop.0&#45;&gt;sym.malloc_printerr -->
<g id="edge6" class="edge">
<title>sym.unlink_chunk.constprop.0&#45;&gt;sym.malloc_printerr</title>
<path fill="none" stroke="black" d="M1501.64,-1021.33C1526.17,-1034.56 1559.85,-1053.9 1587.38,-1074 1630.2,-1105.25 1675.07,-1147.35 1702.04,-1173.84"/>
<polygon fill="black" stroke="black" points="1699.92,-1176.65 1709.49,-1181.2 1704.84,-1171.68 1699.92,-1176.65"/>
</g>
<!-- sym.__libc_message -->
<g id="node8" class="node">
<title>sym.__libc_message</title>
<ellipse fill="none" stroke="black" cx="1953.8" cy="-915" rx="85.29" ry="18"/>
<text text-anchor="middle" x="1953.8" y="-911.3" font-family="Times,serif" font-size="14.00">sym.__libc_message</text>
</g>
<!-- sym.malloc_printerr&#45;&gt;sym.__libc_message -->
<g id="edge7" class="edge">
<title>sym.malloc_printerr&#45;&gt;sym.__libc_message</title>
<path fill="none" stroke="black" d="M1743.02,-1181.23C1781.24,-1132.72 1887.53,-997.83 1932.4,-940.89"/>
<polygon fill="black" stroke="black" points="1935.37,-942.78 1938.81,-932.76 1929.87,-938.45 1935.37,-942.78"/>
</g>
<!-- sym.__libc_message&#45;&gt;sym.__aarch64_swp8_acq -->
<g id="edge14" class="edge">
<title>sym.__libc_message&#45;&gt;sym.__aarch64_swp8_acq</title>
<path fill="none" stroke="black" d="M1969.57,-932.79C1990.53,-956.86 2031.23,-999.48 2074.94,-1023 2082.56,-1027.1 2090.83,-1030.59 2099.26,-1033.58"/>
<polygon fill="black" stroke="black" points="2098.23,-1036.92 2108.82,-1036.73 2100.42,-1030.28 2098.23,-1036.92"/>
</g>
<!-- writev -->
<g id="node9" class="node">
<title>writev</title>
<polygon fill="green" stroke="green" points="2206.59,-960 2152.59,-960 2152.59,-924 2206.59,-924 2206.59,-960"/>
<text text-anchor="middle" x="2179.59" y="-938.3" font-family="Times,serif" font-size="14.00">writev</text>
</g>
<!-- sym.__libc_message&#45;&gt;writev -->
<g id="edge8" class="edge">
<title>sym.__libc_message&#45;&gt;writev</title>
<path fill="none" stroke="black" d="M2028.08,-923.84C2066.28,-928.45 2111.32,-933.88 2142.11,-937.6"/>
<polygon fill="black" stroke="black" points="2142.02,-941.11 2152.37,-938.84 2142.86,-934.16 2142.02,-941.11"/>
</g>
<!-- sym.strchrnul -->
<g id="node10" class="node">
<title>sym.strchrnul</title>
<ellipse fill="cyan" stroke="cyan" cx="2179.59" cy="-888" rx="59.59" ry="18"/>
<text text-anchor="middle" x="2179.59" y="-884.3" font-family="Times,serif" font-size="14.00">sym.strchrnul</text>
</g>
<!-- sym.__libc_message&#45;&gt;sym.strchrnul -->
<g id="edge9" class="edge">
<title>sym.__libc_message&#45;&gt;sym.strchrnul</title>
<path fill="none" stroke="black" d="M2028.08,-906.16C2055.66,-902.83 2086.8,-899.07 2113.58,-895.84"/>
<polygon fill="black" stroke="black" points="2114.1,-899.31 2123.61,-894.63 2113.26,-892.36 2114.1,-899.31"/>
</g>
<!-- sym.__GI_strlen -->
<g id="node11" class="node">
<title>sym.__GI_strlen</title>
<ellipse fill="none" stroke="black" cx="2179.59" cy="-834" rx="70.39" ry="18"/>
<text text-anchor="middle" x="2179.59" y="-830.3" font-family="Times,serif" font-size="14.00">sym.__GI_strlen</text>
</g>
<!-- sym.__libc_message&#45;&gt;sym.__GI_strlen -->
<g id="edge10" class="edge">
<title>sym.__libc_message&#45;&gt;sym.__GI_strlen</title>
<path fill="none" stroke="black" d="M1987.6,-898.46C2011.41,-886.9 2044.64,-871.67 2074.94,-861 2088.21,-856.33 2102.68,-852.06 2116.5,-848.36"/>
<polygon fill="black" stroke="black" points="2117.62,-851.69 2126.41,-845.78 2115.85,-844.92 2117.62,-851.69"/>
</g>
<!-- sym.__mmap -->
<g id="node12" class="node">
<title>sym.__mmap</title>
<ellipse fill="none" stroke="black" cx="2179.59" cy="-1792" rx="59.59" ry="18"/>
<text text-anchor="middle" x="2179.59" y="-1788.3" font-family="Times,serif" font-size="14.00">sym.__mmap</text>
</g>
<!-- sym.__libc_message&#45;&gt;sym.__mmap -->
<g id="edge11" class="edge">
<title>sym.__libc_message&#45;&gt;sym.__mmap</title>
<path fill="none" stroke="black" d="M1957.5,-933.09C1968.53,-1005.74 2012.64,-1283.09 2074.94,-1505 2102.27,-1602.34 2146.46,-1714.06 2167.18,-1764.61"/>
<polygon fill="black" stroke="black" points="2164.07,-1766.25 2171.11,-1774.16 2170.54,-1763.59 2164.07,-1766.25"/>
</g>
<!-- sym.memcpy -->
<g id="node14" class="node">
<title>sym.memcpy</title>
<ellipse fill="cyan" stroke="cyan" cx="2179.59" cy="-780" rx="59.59" ry="18"/>
<text text-anchor="middle" x="2179.59" y="-776.3" font-family="Times,serif" font-size="14.00">sym.memcpy</text>
</g>
<!-- sym.__libc_message&#45;&gt;sym.memcpy -->
<g id="edge13" class="edge">
<title>sym.__libc_message&#45;&gt;sym.memcpy</title>
<path fill="none" stroke="black" d="M1969.57,-897.21C1990.53,-873.14 2031.23,-830.52 2074.94,-807 2087.85,-800.06 2102.63,-794.83 2116.91,-790.92"/>
<polygon fill="black" stroke="black" points="2117.87,-794.29 2126.69,-788.42 2116.13,-787.51 2117.87,-794.29"/>
</g>
<!-- sym.munmap -->
<g id="node15" class="node">
<title>sym.munmap</title>
<ellipse fill="cyan" stroke="cyan" cx="2179.59" cy="-1478" rx="59.59" ry="18"/>
<text text-anchor="middle" x="2179.59" y="-1474.3" font-family="Times,serif" font-size="14.00">sym.munmap</text>
</g>
<!-- sym.__libc_message&#45;&gt;sym.munmap -->
<g id="edge15" class="edge">
<title>sym.__libc_message&#45;&gt;sym.munmap</title>
<path fill="none" stroke="black" d="M1961.99,-933.09C1994.58,-1015.07 2128.46,-1351.89 2167.72,-1450.66"/>
<polygon fill="black" stroke="black" points="2164.47,-1451.97 2171.42,-1459.97 2170.98,-1449.39 2164.47,-1451.97"/>
</g>
<!-- sym.abort -->
<g id="node16" class="node">
<title>sym.abort</title>
<ellipse fill="cyan" stroke="cyan" cx="2179.59" cy="-996" rx="46.29" ry="18"/>
<text text-anchor="middle" x="2179.59" y="-992.3" font-family="Times,serif" font-size="14.00">sym.abort</text>
</g>
<!-- sym.__libc_message&#45;&gt;sym.abort -->
<g id="edge16" class="edge">
<title>sym.__libc_message&#45;&gt;sym.abort</title>
<path fill="none" stroke="black" d="M1987.6,-931.54C2011.41,-943.1 2044.64,-958.33 2074.94,-969 2092.24,-975.09 2111.6,-980.5 2128.86,-984.84"/>
<polygon fill="black" stroke="black" points="2128.2,-988.29 2138.75,-987.28 2129.87,-981.49 2128.2,-988.29"/>
</g>
<!-- mmap -->
<g id="node13" class="node">
<title>mmap</title>
<polygon fill="green" stroke="green" points="2374.23,-1810 2320.23,-1810 2320.23,-1774 2374.23,-1774 2374.23,-1810"/>
<text text-anchor="middle" x="2347.23" y="-1788.3" font-family="Times,serif" font-size="14.00">mmap</text>
</g>
<!-- sym.__mmap&#45;&gt;mmap -->
<g id="edge12" class="edge">
<title>sym.__mmap&#45;&gt;mmap</title>
<path fill="none" stroke="black" d="M2239.45,-1792C2262.89,-1792 2289.13,-1792 2309.73,-1792"/>
<polygon fill="black" stroke="black" points="2309.95,-1795.5 2319.95,-1792 2309.95,-1788.5 2309.95,-1795.5"/>
</g>
<!-- sym.sysmalloc&#45;&gt;sym.__aarch64_cas4_acq -->
<g id="edge29" class="edge">
<title>sym.sysmalloc&#45;&gt;sym.__aarch64_cas4_acq</title>
<path fill="none" stroke="black" d="M747.76,-1418.74C756.6,-1332.97 797.4,-970.64 864.14,-882 900.82,-833.28 1061.34,-761.32 1144.24,-726.44"/>
<polygon fill="black" stroke="black" points="1145.84,-729.56 1153.71,-722.47 1143.14,-723.11 1145.84,-729.56"/>
</g>
<!-- sym.sysmalloc&#45;&gt;sym.malloc_printerr -->
<g id="edge79" class="edge">
<title>sym.sysmalloc&#45;&gt;sym.malloc_printerr</title>
<path fill="none" stroke="black" d="M788.23,-1423.78C851.21,-1404.44 973.6,-1368.23 1079.52,-1345 1181.31,-1322.67 1212.84,-1342.29 1310.9,-1307 1328.33,-1300.73 1329.39,-1292.04 1346.9,-1286 1448.88,-1250.81 1482.92,-1279.97 1587.38,-1253 1619.88,-1244.61 1655.13,-1230.94 1682.08,-1219.46"/>
<polygon fill="black" stroke="black" points="1683.82,-1222.52 1691.61,-1215.34 1681.04,-1216.09 1683.82,-1222.52"/>
</g>
<!-- sym.sysmalloc&#45;&gt;sym.__mmap -->
<g id="edge27" class="edge">
<title>sym.sysmalloc&#45;&gt;sym.__mmap</title>
<path fill="none" stroke="black" d="M751.88,-1455.15C772.85,-1518.9 843.24,-1729.94 864.14,-1754 1044.64,-1961.88 1190.83,-1900 1466.14,-1900 1466.14,-1900 1466.14,-1900 1729.02,-1900 1867.91,-1900 1905.89,-1899.82 2038.94,-1860 2076.2,-1848.85 2115.79,-1828.69 2143.26,-1813.2"/>
<polygon fill="black" stroke="black" points="2145.15,-1816.15 2152.1,-1808.15 2141.68,-1810.08 2145.15,-1816.15"/>
</g>
<!-- sym.sysmalloc&#45;&gt;sym.__aarch64_cas8_acq -->
<g id="edge31" class="edge">
<title>sym.sysmalloc&#45;&gt;sym.__aarch64_cas8_acq</title>
<path fill="none" stroke="black" d="M772.98,-1453.32C830.6,-1489.38 966.48,-1581.49 1043.52,-1692 1069.82,-1729.72 1045.05,-1758.56 1079.52,-1789 1085.61,-1794.38 1092.57,-1798.74 1099.99,-1802.27"/>
<polygon fill="black" stroke="black" points="1099.02,-1805.65 1109.6,-1806.3 1101.73,-1799.2 1099.02,-1805.65"/>
</g>
<!-- sym.new_heap -->
<g id="node19" class="node">
<title>sym.new_heap</title>
<ellipse fill="none" stroke="black" cx="1195.21" cy="-1632" rx="63.89" ry="18"/>
<text text-anchor="middle" x="1195.21" y="-1628.3" font-family="Times,serif" font-size="14.00">sym.new_heap</text>
</g>
<!-- sym.sysmalloc&#45;&gt;sym.new_heap -->
<g id="edge21" class="edge">
<title>sym.sysmalloc&#45;&gt;sym.new_heap</title>
<path fill="none" stroke="black" d="M790.53,-1449.57C812.65,-1455.78 839.78,-1463.34 864.14,-1470 943.75,-1491.76 981.47,-1463.58 1043.52,-1518 1074.98,-1545.59 1047.65,-1577.89 1079.52,-1605 1091.66,-1615.33 1107.04,-1621.87 1122.56,-1625.97"/>
<polygon fill="black" stroke="black" points="1122.21,-1629.49 1132.74,-1628.33 1123.79,-1622.67 1122.21,-1629.49"/>
</g>
<!-- sym.mprotect -->
<g id="node20" class="node">
<title>sym.mprotect</title>
<ellipse fill="none" stroke="black" cx="1467.14" cy="-1708" rx="59.59" ry="18"/>
<text text-anchor="middle" x="1467.14" y="-1704.3" font-family="Times,serif" font-size="14.00">sym.mprotect</text>
</g>
<!-- sym.sysmalloc&#45;&gt;sym.mprotect -->
<g id="edge77" class="edge">
<title>sym.sysmalloc&#45;&gt;sym.mprotect</title>
<path fill="none" stroke="black" d="M753.32,-1455.07C782.29,-1523.2 895.79,-1764.54 1079.52,-1843 1174.09,-1883.39 1214.58,-1879.02 1310.9,-1843 1369.25,-1821.18 1420.15,-1766.43 1446.67,-1733.75"/>
<polygon fill="black" stroke="black" points="1449.7,-1735.56 1453.18,-1725.55 1444.22,-1731.2 1449.7,-1735.56"/>
</g>
<!-- sym.__aarch64_ldadd4_acq -->
<g id="node23" class="node">
<title>sym.__aarch64_ldadd4_acq</title>
<ellipse fill="none" stroke="black" cx="1467.14" cy="-1448" rx="109.68" ry="18"/>
<text text-anchor="middle" x="1467.14" y="-1444.3" font-family="Times,serif" font-size="14.00">sym.__aarch64_ldadd4_acq</text>
</g>
<!-- sym.sysmalloc&#45;&gt;sym.__aarch64_ldadd4_acq -->
<g id="edge28" class="edge">
<title>sym.sysmalloc&#45;&gt;sym.__aarch64_ldadd4_acq</title>
<path fill="none" stroke="black" d="M808.6,-1437.96C928.73,-1439.79 1193.23,-1443.83 1347.66,-1446.19"/>
<polygon fill="black" stroke="black" points="1347.62,-1449.69 1357.67,-1446.34 1347.73,-1442.69 1347.62,-1449.69"/>
</g>
<!-- sym.__aarch64_ldadd8_acq -->
<g id="node24" class="node">
<title>sym.__aarch64_ldadd8_acq</title>
<ellipse fill="none" stroke="black" cx="1467.14" cy="-1394" rx="109.68" ry="18"/>
<text text-anchor="middle" x="1467.14" y="-1390.3" font-family="Times,serif" font-size="14.00">sym.__aarch64_ldadd8_acq</text>
</g>
<!-- sym.sysmalloc&#45;&gt;sym.__aarch64_ldadd8_acq -->
<g id="edge30" class="edge">
<title>sym.sysmalloc&#45;&gt;sym.__aarch64_ldadd8_acq</title>
<path fill="none" stroke="black" d="M807.35,-1433.33C928.3,-1426.11 1199,-1409.95 1353.11,-1400.75"/>
<polygon fill="black" stroke="black" points="1353.77,-1404.22 1363.55,-1400.13 1353.36,-1397.23 1353.77,-1404.22"/>
</g>
<!-- sym._int_free -->
<g id="node25" class="node">
<title>sym._int_free</title>
<ellipse fill="none" stroke="black" cx="953.83" cy="-1160" rx="59.59" ry="18"/>
<text text-anchor="middle" x="953.83" y="-1156.3" font-family="Times,serif" font-size="14.00">sym._int_free</text>
</g>
<!-- sym.sysmalloc&#45;&gt;sym._int_free -->
<g id="edge32" class="edge">
<title>sym.sysmalloc&#45;&gt;sym._int_free</title>
<path fill="none" stroke="black" d="M759.2,-1419.25C794.67,-1371.76 891.87,-1241.61 933.5,-1185.88"/>
<polygon fill="black" stroke="black" points="936.5,-1187.71 939.68,-1177.6 930.89,-1183.52 936.5,-1187.71"/>
</g>
<!-- sym.sysmalloc&#45;&gt;sym.__libc_assert_fail -->
<g id="edge76" class="edge">
<title>sym.sysmalloc&#45;&gt;sym.__libc_assert_fail</title>
<path fill="none" stroke="black" d="M750.17,-1418.9C770.07,-1338.31 862.71,-1010.55 1079.52,-885 1167.74,-833.91 1284.28,-816.55 1366.26,-810.96"/>
<polygon fill="black" stroke="black" points="1366.57,-814.45 1376.33,-810.32 1366.13,-807.46 1366.57,-814.45"/>
</g>
<!-- sym.__default_morecore -->
<g id="node40" class="node">
<title>sym.__default_morecore</title>
<ellipse fill="none" stroke="black" cx="1467.14" cy="-1946" rx="99.38" ry="18"/>
<text text-anchor="middle" x="1467.14" y="-1942.3" font-family="Times,serif" font-size="14.00">sym.__default_morecore</text>
</g>
<!-- sym.sysmalloc&#45;&gt;sym.__default_morecore -->
<g id="edge78" class="edge">
<title>sym.sysmalloc&#45;&gt;sym.__default_morecore</title>
<path fill="none" stroke="black" d="M747.88,-1455.18C756.53,-1532.88 794.37,-1835.86 864.14,-1895 900.9,-1926.16 1195.12,-1938.86 1358.21,-1943.55"/>
<polygon fill="black" stroke="black" points="1358.18,-1947.05 1368.28,-1943.84 1358.38,-1940.06 1358.18,-1947.05"/>
</g>
<!-- sym.new_heap&#45;&gt;sym.__mmap -->
<g id="edge22" class="edge">
<title>sym.new_heap&#45;&gt;sym.__mmap</title>
<path fill="none" stroke="black" d="M1254.56,-1638.63C1274.13,-1643.22 1294.99,-1650.96 1310.9,-1664 1338.26,-1686.43 1317.4,-1715.46 1346.9,-1735 1409.77,-1776.64 1921.51,-1788.26 2109.58,-1791.14"/>
<polygon fill="black" stroke="black" points="2109.58,-1794.64 2119.63,-1791.29 2109.68,-1787.64 2109.58,-1794.64"/>
</g>
<!-- sym.new_heap&#45;&gt;sym.munmap -->
<g id="edge23" class="edge">
<title>sym.new_heap&#45;&gt;sym.munmap</title>
<path fill="none" stroke="black" d="M1258.82,-1630.43C1336.31,-1627.85 1472.12,-1621.27 1587.38,-1605 1787.32,-1576.77 2020.56,-1519.27 2124.19,-1492.42"/>
<polygon fill="black" stroke="black" points="2125.31,-1495.74 2134.11,-1489.84 2123.55,-1488.97 2125.31,-1495.74"/>
</g>
<!-- sym.new_heap&#45;&gt;sym.mprotect -->
<g id="edge24" class="edge">
<title>sym.new_heap&#45;&gt;sym.mprotect</title>
<path fill="none" stroke="black" d="M1242.13,-1644.25C1263.16,-1650.01 1288.36,-1657.11 1310.9,-1664 1327.03,-1668.93 1330.75,-1671.15 1346.9,-1676 1367.8,-1682.28 1390.94,-1688.63 1411.24,-1694"/>
<polygon fill="black" stroke="black" points="1410.38,-1697.39 1420.95,-1696.55 1412.16,-1690.62 1410.38,-1697.39"/>
</g>
<!-- mprotect -->
<g id="node21" class="node">
<title>mprotect</title>
<polygon fill="green" stroke="green" points="1760.52,-1726 1695.52,-1726 1695.52,-1690 1760.52,-1690 1760.52,-1726"/>
<text text-anchor="middle" x="1728.02" y="-1704.3" font-family="Times,serif" font-size="14.00">mprotect</text>
</g>
<!-- sym.mprotect&#45;&gt;mprotect -->
<g id="edge25" class="edge">
<title>sym.mprotect&#45;&gt;mprotect</title>
<path fill="none" stroke="black" d="M1527.21,-1708C1575.46,-1708 1642.46,-1708 1685.28,-1708"/>
<polygon fill="black" stroke="black" points="1685.35,-1711.5 1695.35,-1708 1685.35,-1704.5 1685.35,-1711.5"/>
</g>
<!-- sym.__GI___syscall_error -->
<g id="node22" class="node">
<title>sym.__GI___syscall_error</title>
<ellipse fill="none" stroke="black" cx="1728.02" cy="-1654" rx="104.78" ry="18"/>
<text text-anchor="middle" x="1728.02" y="-1650.3" font-family="Times,serif" font-size="14.00">sym.__GI___syscall_error</text>
</g>
<!-- sym.mprotect&#45;&gt;sym.__GI___syscall_error -->
<g id="edge26" class="edge">
<title>sym.mprotect&#45;&gt;sym.__GI___syscall_error</title>
<path fill="none" stroke="black" d="M1516.83,-1697.84C1554.47,-1689.99 1607.28,-1678.98 1650.54,-1669.95"/>
<polygon fill="black" stroke="black" points="1651.39,-1673.35 1660.47,-1667.88 1649.97,-1666.5 1651.39,-1673.35"/>
</g>
<!-- sym._int_free&#45;&gt;sym.__aarch64_cas4_acq -->
<g id="edge47" class="edge">
<title>sym._int_free&#45;&gt;sym.__aarch64_cas4_acq</title>
<path fill="none" stroke="black" d="M960.2,-1141.82C975.07,-1092.93 1019.64,-955.32 1079.52,-852 1105.85,-806.57 1145.12,-759.83 1170.19,-731.85"/>
<polygon fill="black" stroke="black" points="1173.06,-733.89 1177.18,-724.13 1167.87,-729.2 1173.06,-733.89"/>
</g>
<!-- sym._int_free&#45;&gt;sym.malloc_consolidate -->
<g id="edge58" class="edge">
<title>sym._int_free&#45;&gt;sym.malloc_consolidate</title>
<path fill="none" stroke="black" d="M989.71,-1145.55C1014.54,-1135.51 1048.8,-1122.17 1079.52,-1112 1095.12,-1106.83 1112.09,-1101.79 1128.08,-1097.29"/>
<polygon fill="black" stroke="black" points="1129.19,-1100.62 1137.89,-1094.56 1127.31,-1093.87 1129.19,-1100.62"/>
</g>
<!-- sym._int_free&#45;&gt;sym.unlink_chunk.constprop.0 -->
<g id="edge33" class="edge">
<title>sym._int_free&#45;&gt;sym.unlink_chunk.constprop.0</title>
<path fill="none" stroke="black" d="M969.22,-1142.4C990.48,-1117.77 1032.85,-1073.71 1079.52,-1053 1125.89,-1032.43 1250.57,-1019.14 1345.93,-1011.67"/>
<polygon fill="black" stroke="black" points="1346.23,-1015.16 1355.93,-1010.9 1345.69,-1008.18 1346.23,-1015.16"/>
</g>
<!-- sym._int_free&#45;&gt;sym.malloc_printerr -->
<g id="edge38" class="edge">
<title>sym._int_free&#45;&gt;sym.malloc_printerr</title>
<path fill="none" stroke="black" d="M1007.07,-1151.53C1116.06,-1135.43 1375.19,-1105.4 1587.38,-1145 1621.55,-1151.38 1658.13,-1165.83 1685.27,-1178.18"/>
<polygon fill="black" stroke="black" points="1683.91,-1181.41 1694.46,-1182.44 1686.86,-1175.06 1683.91,-1181.41"/>
</g>
<!-- sym._int_free&#45;&gt;sym.__mmap -->
<g id="edge69" class="edge">
<title>sym._int_free&#45;&gt;sym.__mmap</title>
<path fill="none" stroke="black" d="M959.78,-1178.24C973.8,-1230.2 1014.64,-1383.49 1043.52,-1512 1061.6,-1592.45 1020.64,-1636.28 1079.52,-1694 1154.1,-1767.11 1224.43,-1676.43 1310.9,-1735 1336.02,-1752.01 1320.39,-1778.25 1346.9,-1793 1608.49,-1938.52 1991.82,-1847.69 2128.16,-1807.89"/>
<polygon fill="black" stroke="black" points="2129.33,-1811.19 2137.93,-1805 2127.35,-1804.48 2129.33,-1811.19"/>
</g>
<!-- sym._int_free&#45;&gt;sym.munmap -->
<g id="edge53" class="edge">
<title>sym._int_free&#45;&gt;sym.munmap</title>
<path fill="none" stroke="black" d="M959.39,-1177.94C972.56,-1229.71 1011.69,-1383.87 1043.52,-1512 1059.74,-1577.28 1030.63,-1612.8 1079.52,-1659 1155.54,-1730.84 1226.04,-1640.85 1310.9,-1702 1337.69,-1721.31 1318.45,-1750.23 1346.9,-1767 1440.1,-1821.92 1732.37,-1775.56 1832.66,-1735 1970.16,-1679.39 2102.15,-1555.78 2154.71,-1502.84"/>
<polygon fill="black" stroke="black" points="2157.36,-1505.14 2161.88,-1495.56 2152.37,-1500.23 2157.36,-1505.14"/>
</g>
<!-- sym._int_free&#45;&gt;sym.__aarch64_swp4_rel -->
<g id="edge34" class="edge">
<title>sym._int_free&#45;&gt;sym.__aarch64_swp4_rel</title>
<path fill="none" stroke="black" d="M958.14,-1141.93C970.2,-1076.02 1012.59,-842.38 1043.52,-649 1052.24,-594.44 1042.17,-443.71 1079.52,-403 1084.61,-397.46 1090.6,-392.95 1097.13,-389.29"/>
<polygon fill="black" stroke="black" points="1098.88,-392.34 1106.34,-384.82 1095.82,-386.04 1098.88,-392.34"/>
</g>
<!-- sym._int_free&#45;&gt;sym.__lll_lock_wake_private -->
<g id="edge35" class="edge">
<title>sym._int_free&#45;&gt;sym.__lll_lock_wake_private</title>
<path fill="none" stroke="black" d="M958.31,-1141.95C970.95,-1076.14 1015.1,-842.77 1043.52,-649 1053.26,-582.57 1034.77,-399.06 1079.52,-349 1083.4,-344.66 1087.83,-340.96 1092.64,-337.79"/>
<polygon fill="black" stroke="black" points="1094.71,-340.65 1101.68,-332.67 1091.26,-334.56 1094.71,-340.65"/>
</g>
<!-- sym.__aarch64_cas8_rel -->
<g id="node29" class="node">
<title>sym.__aarch64_cas8_rel</title>
<ellipse fill="none" stroke="black" cx="1195.21" cy="-1172" rx="98.58" ry="18"/>
<text text-anchor="middle" x="1195.21" y="-1168.3" font-family="Times,serif" font-size="14.00">sym.__aarch64_cas8_rel</text>
</g>
<!-- sym._int_free&#45;&gt;sym.__aarch64_cas8_rel -->
<g id="edge37" class="edge">
<title>sym._int_free&#45;&gt;sym.__aarch64_cas8_rel</title>
<path fill="none" stroke="black" d="M1013.08,-1162.92C1036.15,-1164.08 1063.4,-1165.44 1089.66,-1166.76"/>
<polygon fill="black" stroke="black" points="1089.5,-1170.26 1099.67,-1167.26 1089.85,-1163.26 1089.5,-1170.26"/>
</g>
<!-- sym.munmap_chunk -->
<g id="node30" class="node">
<title>sym.munmap_chunk</title>
<ellipse fill="none" stroke="black" cx="1195.21" cy="-1372" rx="85.59" ry="18"/>
<text text-anchor="middle" x="1195.21" y="-1368.3" font-family="Times,serif" font-size="14.00">sym.munmap_chunk</text>
</g>
<!-- sym._int_free&#45;&gt;sym.munmap_chunk -->
<g id="edge39" class="edge">
<title>sym._int_free&#45;&gt;sym.munmap_chunk</title>
<path fill="none" stroke="black" d="M966.94,-1178.06C987.47,-1207.69 1031.57,-1267.31 1079.52,-1307 1100.5,-1324.37 1126.76,-1339.63 1148.85,-1351"/>
<polygon fill="black" stroke="black" points="1147.53,-1354.25 1158.04,-1355.63 1150.68,-1348 1147.53,-1354.25"/>
</g>
<!-- sym._int_free&#45;&gt;sym.__libc_assert_fail -->
<g id="edge70" class="edge">
<title>sym._int_free&#45;&gt;sym.__libc_assert_fail</title>
<path fill="none" stroke="black" d="M965.12,-1142.13C983.9,-1111.11 1026.69,-1047.23 1079.52,-1012 1169.23,-952.17 1224.68,-1003.76 1310.9,-939 1333.96,-921.68 1326.3,-905.19 1346.9,-885 1369.29,-863.06 1399.01,-844.1 1423.18,-830.61"/>
<polygon fill="black" stroke="black" points="1425.04,-833.57 1432.14,-825.71 1421.69,-827.43 1425.04,-833.57"/>
</g>
<!-- sym._int_free&#45;&gt;sym.__lll_lock_wait_private -->
<g id="edge48" class="edge">
<title>sym._int_free&#45;&gt;sym.__lll_lock_wait_private</title>
<path fill="none" stroke="black" d="M957.95,-1142.01C976.96,-1032.5 1076.44,-460.26 1079.52,-457 1083.8,-452.48 1088.68,-448.65 1093.96,-445.41"/>
<polygon fill="black" stroke="black" points="1096,-448.29 1103.19,-440.51 1092.71,-442.11 1096,-448.29"/>
</g>
<!-- sym._int_free&#45;&gt;sym.memset -->
<g id="edge54" class="edge">
<title>sym._int_free&#45;&gt;sym.memset</title>
<path fill="none" stroke="black" d="M955.57,-1178.11C959.41,-1258.77 980.8,-1592.34 1079.52,-1843 1102.96,-1902.52 1147.23,-1963.49 1173.38,-1996.67"/>
<polygon fill="black" stroke="black" points="1170.64,-1998.85 1179.61,-2004.49 1176.12,-1994.49 1170.64,-1998.85"/>
</g>
<!-- sym.__madvise -->
<g id="node37" class="node">
<title>sym.__madvise</title>
<ellipse fill="none" stroke="black" cx="1195.21" cy="-1578" rx="66.89" ry="18"/>
<text text-anchor="middle" x="1195.21" y="-1574.3" font-family="Times,serif" font-size="14.00">sym.__madvise</text>
</g>
<!-- sym._int_free&#45;&gt;sym.__madvise -->
<g id="edge55" class="edge">
<title>sym._int_free&#45;&gt;sym.__madvise</title>
<path fill="none" stroke="black" d="M963.53,-1177.98C983.13,-1218.2 1032.69,-1318.22 1079.52,-1399 1111.72,-1454.55 1153.12,-1517.25 1176.34,-1551.74"/>
<polygon fill="black" stroke="black" points="1173.62,-1553.96 1182.11,-1560.29 1179.42,-1550.04 1173.62,-1553.96"/>
</g>
<!-- sym.systrim.constprop.0 -->
<g id="node39" class="node">
<title>sym.systrim.constprop.0</title>
<ellipse fill="none" stroke="black" cx="1195.21" cy="-1762" rx="98.58" ry="18"/>
<text text-anchor="middle" x="1195.21" y="-1758.3" font-family="Times,serif" font-size="14.00">sym.systrim.constprop.0</text>
</g>
<!-- sym._int_free&#45;&gt;sym.systrim.constprop.0 -->
<g id="edge59" class="edge">
<title>sym._int_free&#45;&gt;sym.systrim.constprop.0</title>
<path fill="none" stroke="black" d="M959.83,-1178.15C974.18,-1230.54 1016.14,-1386.68 1043.52,-1518 1063.02,-1611.56 1015.54,-1659 1079.52,-1730 1086.32,-1737.54 1094.73,-1743.37 1103.89,-1747.86"/>
<polygon fill="black" stroke="black" points="1102.69,-1751.16 1113.26,-1751.92 1105.48,-1744.74 1102.69,-1751.16"/>
</g>
<!-- sym.__open64_nocancel -->
<g id="node44" class="node">
<title>sym.__open64_nocancel</title>
<ellipse fill="none" stroke="black" cx="1195.21" cy="-912" rx="98.58" ry="18"/>
<text text-anchor="middle" x="1195.21" y="-908.3" font-family="Times,serif" font-size="14.00">sym.__open64_nocancel</text>
</g>
<!-- sym._int_free&#45;&gt;sym.__open64_nocancel -->
<g id="edge64" class="edge">
<title>sym._int_free&#45;&gt;sym.__open64_nocancel</title>
<path fill="none" stroke="black" d="M964.12,-1142.02C982.52,-1107.7 1026.43,-1031.84 1079.52,-982 1100.15,-962.63 1126.97,-945.91 1149.49,-933.66"/>
<polygon fill="black" stroke="black" points="1151.34,-936.65 1158.53,-928.86 1148.06,-930.46 1151.34,-936.65"/>
</g>
<!-- sym.__stack_chk_fail -->
<g id="node46" class="node">
<title>sym.__stack_chk_fail</title>
<ellipse fill="none" stroke="black" cx="1467.14" cy="-755" rx="88.28" ry="18"/>
<text text-anchor="middle" x="1467.14" y="-751.3" font-family="Times,serif" font-size="14.00">sym.__stack_chk_fail</text>
</g>
<!-- sym._int_free&#45;&gt;sym.__stack_chk_fail -->
<g id="edge71" class="edge">
<title>sym._int_free&#45;&gt;sym.__stack_chk_fail</title>
<path fill="none" stroke="black" d="M958.11,-1141.82C967.78,-1093.31 1000.6,-959.47 1079.52,-885 1161.14,-807.98 1289.87,-776.5 1376.1,-763.69"/>
<polygon fill="black" stroke="black" points="1376.73,-767.14 1386.14,-762.26 1375.74,-760.21 1376.73,-767.14"/>
</g>
<!-- sym.__read_nocancel -->
<g id="node48" class="node">
<title>sym.__read_nocancel</title>
<ellipse fill="none" stroke="black" cx="1195.21" cy="-1226" rx="87.99" ry="18"/>
<text text-anchor="middle" x="1195.21" y="-1222.3" font-family="Times,serif" font-size="14.00">sym.__read_nocancel</text>
</g>
<!-- sym._int_free&#45;&gt;sym.__read_nocancel -->
<g id="edge72" class="edge">
<title>sym._int_free&#45;&gt;sym.__read_nocancel</title>
<path fill="none" stroke="black" d="M994.48,-1173.2C1018.88,-1181.13 1050.86,-1191.16 1079.52,-1199 1094.17,-1203.01 1109.96,-1206.96 1125.01,-1210.56"/>
<polygon fill="black" stroke="black" points="1124.24,-1213.97 1134.77,-1212.86 1125.85,-1207.16 1124.24,-1213.97"/>
</g>
<!-- sym.__close_nocancel -->
<g id="node50" class="node">
<title>sym.__close_nocancel</title>
<ellipse fill="none" stroke="black" cx="1195.21" cy="-1280" rx="90.98" ry="18"/>
<text text-anchor="middle" x="1195.21" y="-1276.3" font-family="Times,serif" font-size="14.00">sym.__close_nocancel</text>
</g>
<!-- sym._int_free&#45;&gt;sym.__close_nocancel -->
<g id="edge74" class="edge">
<title>sym._int_free&#45;&gt;sym.__close_nocancel</title>
<path fill="none" stroke="black" d="M972.69,-1177.13C995.6,-1198.14 1037.42,-1233.38 1079.52,-1253 1090.64,-1258.18 1102.84,-1262.42 1115.01,-1265.86"/>
<polygon fill="black" stroke="black" points="1114.18,-1269.26 1124.74,-1268.46 1115.99,-1262.5 1114.18,-1269.26"/>
</g>
<!-- futex -->
<g id="node28" class="node">
<title>futex</title>
<polygon fill="green" stroke="green" points="1494.14,-348 1440.14,-348 1440.14,-312 1494.14,-312 1494.14,-348"/>
<text text-anchor="middle" x="1467.14" y="-326.3" font-family="Times,serif" font-size="14.00">futex</text>
</g>
<!-- sym.__lll_lock_wake_private&#45;&gt;futex -->
<g id="edge36" class="edge">
<title>sym.__lll_lock_wake_private&#45;&gt;futex</title>
<path fill="none" stroke="black" d="M1309.12,-325.35C1352.28,-326.63 1398.54,-328 1429.58,-328.92"/>
<polygon fill="black" stroke="black" points="1429.8,-332.42 1439.9,-329.22 1430,-325.43 1429.8,-332.42"/>
</g>
<!-- sym.munmap_chunk&#45;&gt;sym.malloc_printerr -->
<g id="edge43" class="edge">
<title>sym.munmap_chunk&#45;&gt;sym.malloc_printerr</title>
<path fill="none" stroke="black" d="M1249.06,-1357.99C1277.89,-1350.51 1314.27,-1341.37 1346.9,-1334 1453.21,-1310 1486.05,-1326.13 1587.38,-1286 1627.64,-1270.06 1669.18,-1242.49 1696.37,-1222.65"/>
<polygon fill="black" stroke="black" points="1698.72,-1225.27 1704.68,-1216.51 1694.56,-1219.64 1698.72,-1225.27"/>
</g>
<!-- sym.munmap_chunk&#45;&gt;sym.munmap -->
<g id="edge42" class="edge">
<title>sym.munmap_chunk&#45;&gt;sym.munmap</title>
<path fill="none" stroke="black" d="M1279.89,-1368.73C1301.7,-1368.01 1325.18,-1367.36 1346.9,-1367 1453.76,-1365.23 1480.96,-1357.1 1587.38,-1367 1786.88,-1385.57 2019.42,-1438.65 2123.42,-1464.08"/>
<polygon fill="black" stroke="black" points="2122.83,-1467.54 2133.37,-1466.53 2124.5,-1460.75 2122.83,-1467.54"/>
</g>
<!-- sym.munmap_chunk&#45;&gt;sym.__aarch64_ldadd4_acq -->
<g id="edge40" class="edge">
<title>sym.munmap_chunk&#45;&gt;sym.__aarch64_ldadd4_acq</title>
<path fill="none" stroke="black" d="M1240.07,-1387.44C1269.96,-1397.67 1310.56,-1411 1346.9,-1421 1360.32,-1424.69 1374.69,-1428.27 1388.64,-1431.54"/>
<polygon fill="black" stroke="black" points="1388.18,-1435.02 1398.71,-1433.86 1389.75,-1428.2 1388.18,-1435.02"/>
</g>
<!-- sym.munmap_chunk&#45;&gt;sym.__aarch64_ldadd8_acq -->
<g id="edge41" class="edge">
<title>sym.munmap_chunk&#45;&gt;sym.__aarch64_ldadd8_acq</title>
<path fill="none" stroke="black" d="M1275.37,-1378.45C1301.28,-1380.56 1330.52,-1382.95 1358.18,-1385.2"/>
<polygon fill="black" stroke="black" points="1358.04,-1388.7 1368.29,-1386.03 1358.61,-1381.72 1358.04,-1388.7"/>
</g>
<!-- sym.munmap_chunk&#45;&gt;sym.__libc_assert_fail -->
<g id="edge44" class="edge">
<title>sym.munmap_chunk&#45;&gt;sym.__libc_assert_fail</title>
<path fill="none" stroke="black" d="M1243.73,-1357.15C1267.97,-1347.02 1295.52,-1330.99 1310.9,-1307 1412.5,-1148.54 1249.44,-1046.04 1346.9,-885 1362.11,-859.86 1389.17,-841.61 1413.67,-829.31"/>
<polygon fill="black" stroke="black" points="1415.4,-832.36 1422.91,-824.88 1412.37,-826.05 1415.4,-832.36"/>
</g>
<!-- sym.__libc_assert_fail&#45;&gt;sym.__libc_message -->
<g id="edge46" class="edge">
<title>sym.__libc_assert_fail&#45;&gt;sym.__libc_message</title>
<path fill="none" stroke="black" d="M1547.43,-800.47C1623,-795.23 1738.84,-794.88 1832.66,-828 1869.59,-841.04 1905.04,-869.29 1927.73,-890.07"/>
<polygon fill="black" stroke="black" points="1925.52,-892.79 1935.21,-897.08 1930.31,-887.69 1925.52,-892.79"/>
</g>
<!-- sym._itoa_word -->
<g id="node32" class="node">
<title>sym._itoa_word</title>
<ellipse fill="none" stroke="black" cx="1728.02" cy="-855" rx="68.49" ry="18"/>
<text text-anchor="middle" x="1728.02" y="-851.3" font-family="Times,serif" font-size="14.00">sym._itoa_word</text>
</g>
<!-- sym.__libc_assert_fail&#45;&gt;sym._itoa_word -->
<g id="edge45" class="edge">
<title>sym.__libc_assert_fail&#45;&gt;sym._itoa_word</title>
<path fill="none" stroke="black" d="M1535.48,-820.97C1574.13,-827.83 1622.45,-836.42 1660.89,-843.25"/>
<polygon fill="black" stroke="black" points="1660.48,-846.73 1670.94,-845.04 1661.71,-839.84 1660.48,-846.73"/>
</g>
<!-- sym.__lll_lock_wait_private&#45;&gt;futex -->
<g id="edge49" class="edge">
<title>sym.__lll_lock_wait_private&#45;&gt;futex</title>
<path fill="none" stroke="black" d="M1276.24,-417.51C1288.31,-413.85 1300.26,-409.12 1310.9,-403 1331.07,-391.4 1327.05,-377.14 1346.9,-365 1372.34,-349.44 1405.08,-340.48 1429.81,-335.52"/>
<polygon fill="black" stroke="black" points="1430.69,-338.92 1439.88,-333.64 1429.41,-332.04 1430.69,-338.92"/>
</g>
<!-- sym.__aarch64_swp4_acq -->
<g id="node34" class="node">
<title>sym.__aarch64_swp4_acq</title>
<ellipse fill="none" stroke="black" cx="1467.14" cy="-392" rx="104.78" ry="18"/>
<text text-anchor="middle" x="1467.14" y="-388.3" font-family="Times,serif" font-size="14.00">sym.__aarch64_swp4_acq</text>
</g>
<!-- sym.__lll_lock_wait_private&#45;&gt;sym.__aarch64_swp4_acq -->
<g id="edge50" class="edge">
<title>sym.__lll_lock_wait_private&#45;&gt;sym.__aarch64_swp4_acq</title>
<path fill="none" stroke="black" d="M1280.14,-418.18C1310.31,-413.94 1344.47,-409.13 1375.21,-404.8"/>
<polygon fill="black" stroke="black" points="1376.08,-408.21 1385.5,-403.35 1375.11,-401.28 1376.08,-408.21"/>
</g>
<!-- sym.__libc_fatal -->
<g id="node35" class="node">
<title>sym.__libc_fatal</title>
<ellipse fill="none" stroke="black" cx="1728.02" cy="-572" rx="70.39" ry="18"/>
<text text-anchor="middle" x="1728.02" y="-568.3" font-family="Times,serif" font-size="14.00">sym.__libc_fatal</text>
</g>
<!-- sym.__lll_lock_wait_private&#45;&gt;sym.__libc_fatal -->
<g id="edge51" class="edge">
<title>sym.__lll_lock_wait_private&#45;&gt;sym.__libc_fatal</title>
<path fill="none" stroke="black" d="M1291.85,-420.69C1373.34,-416.42 1492.04,-419.04 1587.38,-457 1635.71,-476.24 1679.96,-518.73 1705.18,-546.33"/>
<polygon fill="black" stroke="black" points="1702.79,-548.91 1712.07,-554.03 1708.01,-544.24 1702.79,-548.91"/>
</g>
<!-- sym.__libc_fatal&#45;&gt;sym.__libc_message -->
<g id="edge52" class="edge">
<title>sym.__libc_fatal&#45;&gt;sym.__libc_message</title>
<path fill="none" stroke="black" d="M1740.74,-589.96C1777.58,-646.44 1891.26,-820.68 1935.21,-888.03"/>
<polygon fill="black" stroke="black" points="1932.54,-890.34 1940.93,-896.81 1938.4,-886.52 1932.54,-890.34"/>
</g>
<!-- sym.__madvise&#45;&gt;sym.__GI___syscall_error -->
<g id="edge57" class="edge">
<title>sym.__madvise&#45;&gt;sym.__GI___syscall_error</title>
<path fill="none" stroke="black" d="M1250.16,-1588.33C1278.83,-1593.65 1314.72,-1600.05 1346.9,-1605 1443.04,-1619.8 1553.33,-1633.68 1630.26,-1642.86"/>
<polygon fill="black" stroke="black" points="1630.08,-1646.36 1640.42,-1644.06 1630.9,-1639.41 1630.08,-1646.36"/>
</g>
<!-- madvise -->
<g id="node38" class="node">
<title>madvise</title>
<polygon fill="green" stroke="green" points="1498.14,-1596 1436.14,-1596 1436.14,-1560 1498.14,-1560 1498.14,-1596"/>
<text text-anchor="middle" x="1467.14" y="-1574.3" font-family="Times,serif" font-size="14.00">madvise</text>
</g>
<!-- sym.__madvise&#45;&gt;madvise -->
<g id="edge56" class="edge">
<title>sym.__madvise&#45;&gt;madvise</title>
<path fill="none" stroke="black" d="M1262.24,-1578C1313.43,-1578 1382.7,-1578 1425.88,-1578"/>
<polygon fill="black" stroke="black" points="1426.01,-1581.5 1436.01,-1578 1426.01,-1574.5 1426.01,-1581.5"/>
</g>
<!-- sym.systrim.constprop.0&#45;&gt;sym.__default_morecore -->
<g id="edge60" class="edge">
<title>sym.systrim.constprop.0&#45;&gt;sym.__default_morecore</title>
<path fill="none" stroke="black" d="M1276.08,-1772.48C1288.43,-1776.39 1300.51,-1781.72 1310.9,-1789 1334.83,-1805.77 1327.61,-1822.06 1346.9,-1844 1373.08,-1873.77 1408.04,-1902.66 1433.33,-1922.05"/>
<polygon fill="black" stroke="black" points="1431.42,-1925 1441.5,-1928.25 1435.65,-1919.42 1431.42,-1925"/>
</g>
<!-- sym.sbrk -->
<g id="node41" class="node">
<title>sym.sbrk</title>
<ellipse fill="cyan" stroke="cyan" cx="1728.02" cy="-1946" rx="43.59" ry="18"/>
<text text-anchor="middle" x="1728.02" y="-1942.3" font-family="Times,serif" font-size="14.00">sym.sbrk</text>
</g>
<!-- sym.__default_morecore&#45;&gt;sym.sbrk -->
<g id="edge61" class="edge">
<title>sym.__default_morecore&#45;&gt;sym.sbrk</title>
<path fill="none" stroke="black" d="M1566.75,-1946C1603.34,-1946 1643.41,-1946 1674.34,-1946"/>
<polygon fill="black" stroke="black" points="1674.46,-1949.5 1684.46,-1946 1674.46,-1942.5 1674.46,-1949.5"/>
</g>
<!-- sym.brk -->
<g id="node42" class="node">
<title>sym.brk</title>
<ellipse fill="cyan" stroke="cyan" cx="1953.8" cy="-1946" rx="40.09" ry="18"/>
<text text-anchor="middle" x="1953.8" y="-1942.3" font-family="Times,serif" font-size="14.00">sym.brk</text>
</g>
<!-- sym.sbrk&#45;&gt;sym.brk -->
<g id="edge62" class="edge">
<title>sym.sbrk&#45;&gt;sym.brk</title>
<path fill="none" stroke="black" d="M1771.64,-1946C1809.12,-1946 1863.71,-1946 1903.15,-1946"/>
<polygon fill="black" stroke="black" points="1903.34,-1949.5 1913.34,-1946 1903.34,-1942.5 1903.34,-1949.5"/>
</g>
<!-- brk -->
<g id="node43" class="node">
<title>brk</title>
<polygon fill="green" stroke="green" points="2206.59,-1964 2152.59,-1964 2152.59,-1928 2206.59,-1928 2206.59,-1964"/>
<text text-anchor="middle" x="2179.59" y="-1942.3" font-family="Times,serif" font-size="14.00">brk</text>
</g>
<!-- sym.brk&#45;&gt;brk -->
<g id="edge63" class="edge">
<title>sym.brk&#45;&gt;brk</title>
<path fill="none" stroke="black" d="M1994.29,-1946C2036.11,-1946 2101.55,-1946 2142.16,-1946"/>
<polygon fill="black" stroke="black" points="2142.42,-1949.5 2152.42,-1946 2142.42,-1942.5 2142.42,-1949.5"/>
</g>
<!-- openat -->
<g id="node45" class="node">
<title>openat</title>
<polygon fill="green" stroke="green" points="1494.14,-930 1440.14,-930 1440.14,-894 1494.14,-894 1494.14,-930"/>
<text text-anchor="middle" x="1467.14" y="-908.3" font-family="Times,serif" font-size="14.00">openat</text>
</g>
<!-- sym.__open64_nocancel&#45;&gt;openat -->
<g id="edge65" class="edge">
<title>sym.__open64_nocancel&#45;&gt;openat</title>
<path fill="none" stroke="black" d="M1294.04,-912C1341.35,-912 1395.26,-912 1429.94,-912"/>
<polygon fill="black" stroke="black" points="1430.06,-915.5 1440.06,-912 1430.06,-908.5 1430.06,-915.5"/>
</g>
<!-- sym.__open64_nocancel&#45;&gt;sym.__stack_chk_fail -->
<g id="edge66" class="edge">
<title>sym.__open64_nocancel&#45;&gt;sym.__stack_chk_fail</title>
<path fill="none" stroke="black" d="M1273.91,-901.1C1287.45,-896.36 1300.49,-889.6 1310.9,-880 1345,-848.53 1312.04,-812.62 1346.9,-782 1355.2,-774.71 1365.06,-769.26 1375.5,-765.22"/>
<polygon fill="black" stroke="black" points="1376.89,-768.44 1385.21,-761.89 1374.62,-761.82 1376.89,-768.44"/>
</g>
<!-- sym.__fortify_fail -->
<g id="node47" class="node">
<title>sym.__fortify_fail</title>
<ellipse fill="none" stroke="black" cx="1728.02" cy="-759" rx="75.29" ry="18"/>
<text text-anchor="middle" x="1728.02" y="-755.3" font-family="Times,serif" font-size="14.00">sym.__fortify_fail</text>
</g>
<!-- sym.__stack_chk_fail&#45;&gt;sym.__fortify_fail -->
<g id="edge67" class="edge">
<title>sym.__stack_chk_fail&#45;&gt;sym.__fortify_fail</title>
<path fill="none" stroke="black" d="M1555.42,-756.35C1583.53,-756.78 1614.62,-757.26 1642.52,-757.69"/>
<polygon fill="black" stroke="black" points="1642.59,-761.2 1652.64,-757.85 1642.7,-754.2 1642.59,-761.2"/>
</g>
<!-- sym.__fortify_fail&#45;&gt;sym.__libc_message -->
<g id="edge68" class="edge">
<title>sym.__fortify_fail&#45;&gt;sym.__libc_message</title>
<path fill="none" stroke="black" d="M1780.91,-771.98C1798.14,-777.57 1816.92,-785.14 1832.66,-795 1873.42,-820.53 1911.01,-862.25 1932.93,-889.16"/>
<polygon fill="black" stroke="black" points="1930.23,-891.38 1939.21,-897 1935.69,-887.01 1930.23,-891.38"/>
</g>
<!-- read -->
<g id="node49" class="node">
<title>read</title>
<polygon fill="green" stroke="green" points="1494.14,-1190 1440.14,-1190 1440.14,-1154 1494.14,-1154 1494.14,-1190"/>
<text text-anchor="middle" x="1467.14" y="-1168.3" font-family="Times,serif" font-size="14.00">read</text>
</g>
<!-- sym.__read_nocancel&#45;&gt;read -->
<g id="edge73" class="edge">
<title>sym.__read_nocancel&#45;&gt;read</title>
<path fill="none" stroke="black" d="M1258.82,-1213.48C1312.02,-1202.83 1386.52,-1187.93 1430.22,-1179.19"/>
<polygon fill="black" stroke="black" points="1430.98,-1182.6 1440.1,-1177.21 1429.61,-1175.74 1430.98,-1182.6"/>
</g>
<!-- close -->
<g id="node51" class="node">
<title>close</title>
<polygon fill="green" stroke="green" points="1494.14,-1244 1440.14,-1244 1440.14,-1208 1494.14,-1208 1494.14,-1244"/>
<text text-anchor="middle" x="1467.14" y="-1222.3" font-family="Times,serif" font-size="14.00">close</text>
</g>
<!-- sym.__close_nocancel&#45;&gt;close -->
<g id="edge75" class="edge">
<title>sym.__close_nocancel&#45;&gt;close</title>
<path fill="none" stroke="black" d="M1259.84,-1267.27C1312.94,-1256.65 1386.72,-1241.89 1430.14,-1233.2"/>
<polygon fill="black" stroke="black" points="1430.85,-1236.63 1439.97,-1231.23 1429.48,-1229.76 1430.85,-1236.63"/>
</g>
<!-- sym.alloc_perturb&#45;&gt;sym.memset -->
<g id="edge82" class="edge">
<title>sym.alloc_perturb&#45;&gt;sym.memset</title>
<path fill="none" stroke="black" d="M1025.68,-2035.38C1058.77,-2032.75 1097.87,-2029.65 1130.08,-2027.09"/>
<polygon fill="black" stroke="black" points="1130.59,-2030.56 1140.28,-2026.28 1130.03,-2023.58 1130.59,-2030.56"/>
</g>
<!-- sym.ptmalloc_init.part.0&#45;&gt;sym.__stack_chk_fail -->
<g id="edge91" class="edge">
<title>sym.ptmalloc_init.part.0&#45;&gt;sym.__stack_chk_fail</title>
<path fill="none" stroke="black" d="M296.21,-234.62C413.61,-283.41 771.29,-428.04 1079.52,-511 1180.52,-538.18 1221.64,-499.47 1310.9,-554 1381.01,-596.83 1431.3,-683.8 1453.48,-727.96"/>
<polygon fill="black" stroke="black" points="1450.35,-729.53 1457.91,-736.95 1456.63,-726.44 1450.35,-729.53"/>
</g>
<!-- getrandom -->
<g id="node54" class="node">
<title>getrandom</title>
<polygon fill="green" stroke="green" points="553.41,-236 478.41,-236 478.41,-200 553.41,-200 553.41,-236"/>
<text text-anchor="middle" x="515.91" y="-214.3" font-family="Times,serif" font-size="14.00">getrandom</text>
</g>
<!-- sym.ptmalloc_init.part.0&#45;&gt;getrandom -->
<g id="edge87" class="edge">
<title>sym.ptmalloc_init.part.0&#45;&gt;getrandom</title>
<path fill="none" stroke="black" d="M354.67,-218C393.52,-218 436.35,-218 467.95,-218"/>
<polygon fill="black" stroke="black" points="468.22,-221.5 478.22,-218 468.22,-214.5 468.22,-221.5"/>
</g>
<!-- sym.__clock_gettime -->
<g id="node55" class="node">
<title>sym.__clock_gettime</title>
<ellipse fill="red" stroke="red" cx="515.91" cy="-164" rx="87.18" ry="18"/>
<text text-anchor="middle" x="515.91" y="-160.3" font-family="Times,serif" font-size="14.00">sym.__clock_gettime</text>
</g>
<!-- sym.ptmalloc_init.part.0&#45;&gt;sym.__clock_gettime -->
<g id="edge88" class="edge">
<title>sym.ptmalloc_init.part.0&#45;&gt;sym.__clock_gettime</title>
<path fill="none" stroke="black" d="M321.18,-204.51C358.48,-196.71 405.47,-186.89 443.83,-178.86"/>
<polygon fill="black" stroke="black" points="444.83,-182.23 453.9,-176.76 443.39,-175.38 444.83,-182.23"/>
</g>
<!-- sym.imp.__tunable_get_val -->
<g id="node57" class="node">
<title>sym.imp.__tunable_get_val</title>
<ellipse fill="orange" stroke="orange" cx="515.91" cy="-110" rx="109.68" ry="18"/>
<text text-anchor="middle" x="515.91" y="-106.3" font-family="Times,serif" font-size="14.00">sym.imp.__tunable_get_val</text>
</g>
<!-- sym.ptmalloc_init.part.0&#45;&gt;sym.imp.__tunable_get_val -->
<g id="edge90" class="edge">
<title>sym.ptmalloc_init.part.0&#45;&gt;sym.imp.__tunable_get_val</title>
<path fill="none" stroke="black" d="M283.75,-200.58C312.93,-182.47 361.24,-154.39 406.07,-137 415.94,-133.17 426.52,-129.75 437.07,-126.74"/>
<polygon fill="black" stroke="black" points="438.02,-130.11 446.73,-124.09 436.16,-123.36 438.02,-130.11"/>
</g>
<!-- clock_gettime -->
<g id="node56" class="node">
<title>clock_gettime</title>
<polygon fill="green" stroke="green" points="791.94,-182 697.94,-182 697.94,-146 791.94,-146 791.94,-182"/>
<text text-anchor="middle" x="744.94" y="-160.3" font-family="Times,serif" font-size="14.00">clock_gettime</text>
</g>
<!-- sym.__clock_gettime&#45;&gt;clock_gettime -->
<g id="edge89" class="edge">
<title>sym.__clock_gettime&#45;&gt;clock_gettime</title>
<path fill="none" stroke="black" d="M603.07,-164C631.4,-164 662.15,-164 687.68,-164"/>
<polygon fill="black" stroke="black" points="687.91,-167.5 697.91,-164 687.91,-160.5 687.91,-167.5"/>
</g>
<!-- sym.tcache_init.part.0&#45;&gt;sym.__aarch64_cas4_acq -->
<g id="edge93" class="edge">
<title>sym.tcache_init.part.0&#45;&gt;sym.__aarch64_cas4_acq</title>
<path fill="none" stroke="black" d="M310.4,-582.3C338.74,-589.59 374.17,-598.31 406.07,-605 608.26,-647.42 659,-659.54 864.14,-684 937.89,-692.79 1021.37,-698.32 1085.92,-701.63"/>
<polygon fill="black" stroke="black" points="1085.95,-705.14 1096.11,-702.14 1086.3,-698.15 1085.95,-705.14"/>
</g>
<!-- sym.tcache_init.part.0&#45;&gt;sym._int_malloc -->
<g id="edge94" class="edge">
<title>sym.tcache_init.part.0&#45;&gt;sym._int_malloc</title>
<path fill="none" stroke="black" d="M263.19,-586.01C298.04,-682.37 462.51,-1137.12 504.92,-1254.37"/>
<polygon fill="black" stroke="black" points="501.72,-1255.83 508.42,-1264.04 508.31,-1253.45 501.72,-1255.83"/>
</g>
<!-- sym.tcache_init.part.0&#45;&gt;sym.__aarch64_swp4_rel -->
<g id="edge95" class="edge">
<title>sym.tcache_init.part.0&#45;&gt;sym.__aarch64_swp4_rel</title>
<path fill="none" stroke="black" d="M281.6,-550.65C310.28,-531.53 359.45,-501.33 406.07,-485 638.09,-403.75 928.41,-382.79 1083.84,-377.56"/>
<polygon fill="black" stroke="black" points="1084,-381.06 1093.88,-377.24 1083.77,-374.06 1084,-381.06"/>
</g>
<!-- sym.tcache_init.part.0&#45;&gt;sym.__lll_lock_wake_private -->
<g id="edge125" class="edge">
<title>sym.tcache_init.part.0&#45;&gt;sym.__lll_lock_wake_private</title>
<path fill="none" stroke="black" d="M269.56,-550C292.9,-518.87 345.42,-455.43 406.07,-425 625.12,-315.09 919.56,-308.11 1079.36,-314.14"/>
<polygon fill="black" stroke="black" points="1079.56,-317.65 1089.69,-314.55 1079.84,-310.66 1079.56,-317.65"/>
</g>
<!-- sym.tcache_init.part.0&#45;&gt;sym.__lll_lock_wait_private -->
<g id="edge126" class="edge">
<title>sym.tcache_init.part.0&#45;&gt;sym.__lll_lock_wait_private</title>
<path fill="none" stroke="black" d="M343.76,-564.44C521.09,-556.23 917.95,-532.78 1043.52,-483 1061.87,-475.73 1061.57,-465.2 1079.52,-457 1088.83,-452.75 1098.87,-449.13 1109.02,-446.06"/>
<polygon fill="black" stroke="black" points="1110.1,-449.39 1118.75,-443.27 1108.18,-442.66 1110.1,-449.39"/>
</g>
<!-- sym.tcache_init.part.0&#45;&gt;sym.memset -->
<g id="edge96" class="edge">
<title>sym.tcache_init.part.0&#45;&gt;sym.memset</title>
<path fill="none" stroke="black" d="M259.42,-586.31C282.36,-737.18 446.82,-1775.02 661.75,-1991 783.85,-2113.69 872.32,-2093.55 1043.52,-2068 1080.1,-2062.54 1120.08,-2050.02 1149.66,-2039.41"/>
<polygon fill="black" stroke="black" points="1151.08,-2042.62 1159.27,-2035.9 1148.68,-2036.04 1151.08,-2042.62"/>
</g>
<!-- sym.tcache_init.part.0&#45;&gt;sym.get_free_list -->
<g id="edge97" class="edge">
<title>sym.tcache_init.part.0&#45;&gt;sym.get_free_list</title>
<path fill="none" stroke="black" d="M345.56,-568C481.75,-568 740.1,-568 871.57,-568"/>
<polygon fill="black" stroke="black" points="871.59,-571.5 881.59,-568 871.59,-564.5 871.59,-571.5"/>
</g>
<!-- sym.tcache_init.part.0&#45;&gt;sym.arena_get2.part.0 -->
<g id="edge105" class="edge">
<title>sym.tcache_init.part.0&#45;&gt;sym.arena_get2.part.0</title>
<path fill="none" stroke="black" d="M336.9,-575.82C359.28,-577.92 383.62,-580.13 406.07,-582 564.73,-595.24 749.49,-608.25 858.5,-615.69"/>
<polygon fill="black" stroke="black" points="858.27,-619.18 868.49,-616.37 858.75,-612.19 858.27,-619.18"/>
</g>
<!-- sym.tcache_init.part.0&#45;&gt;sym.arena_get_retry -->
<g id="edge118" class="edge">
<title>sym.tcache_init.part.0&#45;&gt;sym.arena_get_retry</title>
<path fill="none" stroke="black" d="M294.95,-551.81C324.7,-539.93 367.3,-524.45 406.07,-516 488.07,-498.12 583.42,-490.23 651.88,-486.75"/>
<polygon fill="black" stroke="black" points="652.38,-490.23 662.2,-486.25 652.04,-483.24 652.38,-490.23"/>
</g>
<!-- sym.get_free_list&#45;&gt;sym.__aarch64_cas4_acq -->
<g id="edge98" class="edge">
<title>sym.get_free_list&#45;&gt;sym.__aarch64_cas4_acq</title>
<path fill="none" stroke="black" d="M1010.68,-579.32C1022.14,-583.17 1033.7,-588.26 1043.52,-595 1064.93,-609.68 1059.85,-624.05 1079.52,-641 1099.77,-658.45 1125.42,-673.51 1147.33,-684.73"/>
<polygon fill="black" stroke="black" points="1145.95,-687.95 1156.46,-689.29 1149.08,-681.69 1145.95,-687.95"/>
</g>
<!-- sym.get_free_list&#45;&gt;sym.__aarch64_swp4_rel -->
<g id="edge99" class="edge">
<title>sym.get_free_list&#45;&gt;sym.__aarch64_swp4_rel</title>
<path fill="none" stroke="black" d="M970.6,-550.2C988.92,-529.23 1019.66,-493.05 1043.52,-460 1061.06,-435.71 1055.12,-420.39 1079.52,-403 1086.92,-397.72 1095.21,-393.47 1103.85,-390.03"/>
<polygon fill="black" stroke="black" points="1105.11,-393.3 1113.34,-386.62 1102.75,-386.71 1105.11,-393.3"/>
</g>
<!-- sym.get_free_list&#45;&gt;sym.__lll_lock_wake_private -->
<g id="edge101" class="edge">
<title>sym.get_free_list&#45;&gt;sym.__lll_lock_wake_private</title>
<path fill="none" stroke="black" d="M959.69,-549.94C972.03,-507.69 1008.75,-401.94 1079.52,-349 1085.38,-344.62 1091.83,-340.94 1098.61,-337.84"/>
<polygon fill="black" stroke="black" points="1100.1,-341.01 1108.02,-333.97 1097.44,-334.54 1100.1,-341.01"/>
</g>
<!-- sym.get_free_list&#45;&gt;sym.__libc_assert_fail -->
<g id="edge102" class="edge">
<title>sym.get_free_list&#45;&gt;sym.__libc_assert_fail</title>
<path fill="none" stroke="black" d="M1022.32,-562.09C1113.53,-555.66 1269.51,-550.64 1310.9,-587 1377.11,-645.16 1285.84,-718.44 1346.9,-782 1353.96,-789.35 1362.56,-794.89 1371.88,-799.04"/>
<polygon fill="black" stroke="black" points="1370.82,-802.39 1381.41,-802.75 1373.36,-795.86 1370.82,-802.39"/>
</g>
<!-- sym.get_free_list&#45;&gt;sym.__lll_lock_wait_private -->
<g id="edge100" class="edge">
<title>sym.get_free_list&#45;&gt;sym.__lll_lock_wait_private</title>
<path fill="none" stroke="black" d="M1008.83,-556.18C1021.31,-551.49 1033.77,-544.99 1043.52,-536 1071.89,-509.85 1049.69,-481.48 1079.52,-457 1085.17,-452.36 1091.48,-448.49 1098.16,-445.27"/>
<polygon fill="black" stroke="black" points="1099.66,-448.43 1107.46,-441.26 1096.89,-442 1099.66,-448.43"/>
</g>
<!-- sym.detach_arena.part.0 -->
<g id="node60" class="node">
<title>sym.detach_arena.part.0</title>
<ellipse fill="none" stroke="black" cx="1195.21" cy="-614" rx="97.48" ry="18"/>
<text text-anchor="middle" x="1195.21" y="-610.3" font-family="Times,serif" font-size="14.00">sym.detach_arena.part.0</text>
</g>
<!-- sym.get_free_list&#45;&gt;sym.detach_arena.part.0 -->
<g id="edge103" class="edge">
<title>sym.get_free_list&#45;&gt;sym.detach_arena.part.0</title>
<path fill="none" stroke="black" d="M1011.56,-578.9C1043.02,-584.95 1082.59,-592.55 1116.85,-599.13"/>
<polygon fill="black" stroke="black" points="1116.35,-602.6 1126.83,-601.05 1117.67,-595.73 1116.35,-602.6"/>
</g>
<!-- sym.detach_arena.part.0&#45;&gt;sym.__libc_assert_fail -->
<g id="edge104" class="edge">
<title>sym.detach_arena.part.0&#45;&gt;sym.__libc_assert_fail</title>
<path fill="none" stroke="black" d="M1275.24,-624.34C1288.49,-629.15 1301.1,-636.07 1310.9,-646 1354.82,-690.51 1301.9,-738.59 1346.9,-782 1354.37,-789.2 1363.33,-794.64 1372.94,-798.72"/>
<polygon fill="black" stroke="black" points="1371.74,-802.01 1382.34,-802.23 1374.19,-795.45 1371.74,-802.01"/>
</g>
<!-- sym.arena_get2.part.0&#45;&gt;sym.__aarch64_cas4_acq -->
<g id="edge106" class="edge">
<title>sym.arena_get2.part.0&#45;&gt;sym.__aarch64_cas4_acq</title>
<path fill="none" stroke="black" d="M1001.88,-637.39C1015.5,-642.27 1030.26,-647.97 1043.52,-654 1060.18,-661.57 1062.59,-667.05 1079.52,-674 1093.27,-679.65 1108.35,-684.64 1122.91,-688.91"/>
<polygon fill="black" stroke="black" points="1122.32,-692.38 1132.9,-691.75 1124.24,-685.65 1122.32,-692.38"/>
</g>
<!-- sym.arena_get2.part.0&#45;&gt;sym.__aarch64_cas8_acq -->
<g id="edge113" class="edge">
<title>sym.arena_get2.part.0&#45;&gt;sym.__aarch64_cas8_acq</title>
<path fill="none" stroke="black" d="M958.74,-639.99C972.84,-705.61 1021.37,-938.42 1043.52,-1133 1051.78,-1205.53 1032.65,-1733.04 1079.52,-1789 1084.15,-1794.53 1089.69,-1799.05 1095.78,-1802.73"/>
<polygon fill="black" stroke="black" points="1094.59,-1806.06 1105.08,-1807.55 1097.81,-1799.84 1094.59,-1806.06"/>
</g>
<!-- sym.arena_get2.part.0&#45;&gt;sym.new_heap -->
<g id="edge116" class="edge">
<title>sym.arena_get2.part.0&#45;&gt;sym.new_heap</title>
<path fill="none" stroke="black" d="M958.6,-640.01C972.21,-705.69 1019.3,-938.66 1043.52,-1133 1050.02,-1185.19 1045.32,-1565.04 1079.52,-1605 1090.2,-1617.48 1105.48,-1624.79 1121.4,-1628.94"/>
<polygon fill="black" stroke="black" points="1120.85,-1632.41 1131.37,-1631.14 1122.36,-1625.57 1120.85,-1632.41"/>
</g>
<!-- sym.arena_get2.part.0&#45;&gt;sym.__aarch64_swp4_rel -->
<g id="edge107" class="edge">
<title>sym.arena_get2.part.0&#45;&gt;sym.__aarch64_swp4_rel</title>
<path fill="none" stroke="black" d="M1022.52,-610.19C1030.42,-606.42 1037.72,-601.47 1043.52,-595 1101.44,-530.32 1019.55,-465.78 1079.52,-403 1084.77,-397.51 1090.9,-393.04 1097.56,-389.42"/>
<polygon fill="black" stroke="black" points="1099.39,-392.43 1106.93,-384.98 1096.39,-386.1 1099.39,-392.43"/>
</g>
<!-- sym.arena_get2.part.0&#45;&gt;sym.__lll_lock_wake_private -->
<g id="edge114" class="edge">
<title>sym.arena_get2.part.0&#45;&gt;sym.__lll_lock_wake_private</title>
<path fill="none" stroke="black" d="M1022.76,-610.41C1030.63,-606.6 1037.85,-601.59 1043.52,-595 1115.57,-511.22 1004.81,-430.42 1079.52,-349 1083.6,-344.56 1088.25,-340.78 1093.3,-337.58"/>
<polygon fill="black" stroke="black" points="1095.07,-340.6 1102.14,-332.7 1091.69,-334.47 1095.07,-340.6"/>
</g>
<!-- sym.arena_get2.part.0&#45;&gt;sym.__libc_assert_fail -->
<g id="edge115" class="edge">
<title>sym.arena_get2.part.0&#45;&gt;sym.__libc_assert_fail</title>
<path fill="none" stroke="black" d="M1025.78,-632.9C1128.86,-648.79 1308.16,-676.71 1310.9,-679 1348.09,-710.12 1310.72,-749.71 1346.9,-782 1354.76,-789.01 1364.06,-794.32 1373.93,-798.33"/>
<polygon fill="black" stroke="black" points="1372.96,-801.7 1383.55,-801.78 1375.32,-795.11 1372.96,-801.7"/>
</g>
<!-- sym.arena_get2.part.0&#45;&gt;sym.__lll_lock_wait_private -->
<g id="edge112" class="edge">
<title>sym.arena_get2.part.0&#45;&gt;sym.__lll_lock_wait_private</title>
<path fill="none" stroke="black" d="M1021.66,-610.01C1029.8,-606.27 1037.39,-601.38 1043.52,-595 1087.43,-549.28 1034.17,-501.28 1079.52,-457 1084.23,-452.4 1089.56,-448.54 1095.29,-445.29"/>
<polygon fill="black" stroke="black" points="1097.18,-448.26 1104.58,-440.68 1094.07,-441.99 1097.18,-448.26"/>
</g>
<!-- sym.arena_get2.part.0&#45;&gt;sym.detach_arena.part.0 -->
<g id="edge117" class="edge">
<title>sym.arena_get2.part.0&#45;&gt;sym.detach_arena.part.0</title>
<path fill="none" stroke="black" d="M1042.61,-619.07C1057.71,-618.56 1073.55,-618.03 1089.05,-617.51"/>
<polygon fill="black" stroke="black" points="1089.31,-621.01 1099.19,-617.18 1089.07,-614.01 1089.31,-621.01"/>
</g>
<!-- sym.__get_nprocs_sched -->
<g id="node62" class="node">
<title>sym.__get_nprocs_sched</title>
<ellipse fill="none" stroke="black" cx="1195.21" cy="-484" rx="100.18" ry="18"/>
<text text-anchor="middle" x="1195.21" y="-480.3" font-family="Times,serif" font-size="14.00">sym.__get_nprocs_sched</text>
</g>
<!-- sym.arena_get2.part.0&#45;&gt;sym.__get_nprocs_sched -->
<g id="edge108" class="edge">
<title>sym.arena_get2.part.0&#45;&gt;sym.__get_nprocs_sched</title>
<path fill="none" stroke="black" d="M1011.31,-607.96C1022.26,-604.36 1033.45,-600.05 1043.52,-595 1090.5,-571.42 1138.29,-533.31 1167.1,-508.45"/>
<polygon fill="black" stroke="black" points="1169.47,-511.03 1174.7,-501.82 1164.86,-505.75 1169.47,-511.03"/>
</g>
<!-- sym.__get_nprocs_sched&#45;&gt;sym.__stack_chk_fail -->
<g id="edge111" class="edge">
<title>sym.__get_nprocs_sched&#45;&gt;sym.__stack_chk_fail</title>
<path fill="none" stroke="black" d="M1269.89,-496.08C1284.38,-500.72 1298.82,-507.13 1310.9,-516 1320.95,-523.38 1411.49,-667.42 1449.48,-728.25"/>
<polygon fill="black" stroke="black" points="1446.63,-730.3 1454.89,-736.93 1452.57,-726.6 1446.63,-730.3"/>
</g>
<!-- sched_getaffinity -->
<g id="node63" class="node">
<title>sched_getaffinity</title>
<polygon fill="green" stroke="green" points="1522.14,-556 1412.14,-556 1412.14,-520 1522.14,-520 1522.14,-556"/>
<text text-anchor="middle" x="1467.14" y="-534.3" font-family="Times,serif" font-size="14.00">sched_getaffinity</text>
</g>
<!-- sym.__get_nprocs_sched&#45;&gt;sched_getaffinity -->
<g id="edge109" class="edge">
<title>sym.__get_nprocs_sched&#45;&gt;sched_getaffinity</title>
<path fill="none" stroke="black" d="M1262.93,-497.35C1305.43,-505.85 1360.17,-516.8 1402.12,-525.19"/>
<polygon fill="black" stroke="black" points="1401.46,-528.63 1411.96,-527.16 1402.84,-521.77 1401.46,-528.63"/>
</g>
<!-- sym.__sched_cpucount -->
<g id="node64" class="node">
<title>sym.__sched_cpucount</title>
<ellipse fill="none" stroke="black" cx="1467.14" cy="-484" rx="93.68" ry="18"/>
<text text-anchor="middle" x="1467.14" y="-480.3" font-family="Times,serif" font-size="14.00">sym.__sched_cpucount</text>
</g>
<!-- sym.__get_nprocs_sched&#45;&gt;sym.__sched_cpucount -->
<g id="edge110" class="edge">
<title>sym.__get_nprocs_sched&#45;&gt;sym.__sched_cpucount</title>
<path fill="none" stroke="black" d="M1295.57,-484C1317.6,-484 1341,-484 1363.17,-484"/>
<polygon fill="black" stroke="black" points="1363.26,-487.5 1373.26,-484 1363.26,-480.5 1363.26,-487.5"/>
</g>
<!-- sym.arena_get_retry&#45;&gt;sym.__aarch64_cas4_acq -->
<g id="edge120" class="edge">
<title>sym.arena_get_retry&#45;&gt;sym.__aarch64_cas4_acq</title>
<path fill="none" stroke="black" d="M753.19,-501.96C768.21,-536.65 806.22,-612.68 864.14,-649 901.56,-672.47 1010.8,-688.15 1093.44,-697.03"/>
<polygon fill="black" stroke="black" points="1093.33,-700.54 1103.64,-698.11 1094.06,-693.58 1093.33,-700.54"/>
</g>
<!-- sym.arena_get_retry&#45;&gt;sym.__aarch64_swp4_rel -->
<g id="edge119" class="edge">
<title>sym.arena_get_retry&#45;&gt;sym.__aarch64_swp4_rel</title>
<path fill="none" stroke="black" d="M800.81,-470.55C866.89,-454.38 981.28,-426.49 1079.52,-403 1093.66,-399.62 1108.8,-396.03 1123.28,-392.62"/>
<polygon fill="black" stroke="black" points="1124.25,-395.98 1133.18,-390.28 1122.65,-389.17 1124.25,-395.98"/>
</g>
<!-- sym.arena_get_retry&#45;&gt;sym.__lll_lock_wake_private -->
<g id="edge123" class="edge">
<title>sym.arena_get_retry&#45;&gt;sym.__lll_lock_wake_private</title>
<path fill="none" stroke="black" d="M768.3,-466.66C791.23,-449.61 828.49,-423.9 864.14,-408 942.23,-373.18 1037.25,-350.28 1105.24,-336.93"/>
<polygon fill="black" stroke="black" points="1105.92,-340.36 1115.07,-335.03 1104.59,-333.49 1105.92,-340.36"/>
</g>
<!-- sym.arena_get_retry&#45;&gt;sym.__lll_lock_wait_private -->
<g id="edge124" class="edge">
<title>sym.arena_get_retry&#45;&gt;sym.__lll_lock_wait_private</title>
<path fill="none" stroke="black" d="M826.42,-480.04C886.45,-476.48 970.37,-470.2 1043.52,-460 1068.37,-456.54 1095.29,-451.57 1119.42,-446.67"/>
<polygon fill="black" stroke="black" points="1120.13,-450.1 1129.22,-444.65 1118.72,-443.24 1120.13,-450.1"/>
</g>
<!-- sym.arena_get_retry&#45;&gt;sym.get_free_list -->
<g id="edge121" class="edge">
<title>sym.arena_get_retry&#45;&gt;sym.get_free_list</title>
<path fill="none" stroke="black" d="M784.86,-499.8C819.13,-513.72 869.15,-534.02 905.68,-548.86"/>
<polygon fill="black" stroke="black" points="904.55,-552.18 915.14,-552.7 907.19,-545.69 904.55,-552.18"/>
</g>
<!-- sym.arena_get_retry&#45;&gt;sym.arena_get2.part.0 -->
<g id="edge122" class="edge">
<title>sym.arena_get_retry&#45;&gt;sym.arena_get2.part.0</title>
<path fill="none" stroke="black" d="M760.44,-502.06C781.02,-526.53 821.02,-570.04 864.14,-595 870.55,-598.71 877.53,-601.97 884.66,-604.8"/>
<polygon fill="black" stroke="black" points="883.85,-608.23 894.44,-608.41 886.28,-601.67 883.85,-608.23"/>
</g>
</g>
</svg>
