digraph G {
	"sym.fopen" [shape=oval]
	"sym.__fopen_internal" [shape=oval]
	"fcn.00026ee0" [shape=oval]
	"sym._IO_no_init" [shape=oval]
	"sym._IO_old_init" [shape=oval]
	"sym._IO_new_file_init_internal" [shape=oval]
	"sym._IO_link_in" [shape=oval]
	"sym.__libc_cleanup_push_defer" [shape=oval]
	"sym.__aarch64_cas4_acq" [shape=oval]
	"sym.__aarch64_swp4_rel" [shape=oval]
	"sym.__lll_lock_wake_private" [shape=oval]
	"futex" [shape=rectangle,style=filled,color=green]
	"sym.__libc_cleanup_pop_restore" [shape=oval]
	"sym.__pthread_unwind" [shape=oval]
	"sym._Unwind_ForcedUnwind" [shape=oval]
	"sym.__libc_unwind_link_get" [shape=oval]
	"sym.__libc_dlopen_mode" [shape=oval,style=filled,color=red]
	"sym.dlerror_run" [shape=oval,style=filled,color=red]
	"sym.__stack_chk_fail" [shape=oval]
	"sym.__fortify_fail" [shape=oval]
	"sym.__libc_message" [shape=oval]
	"writev" [shape=rectangle,style=filled,color=green]
	"sym.strchrnul" [shape=oval]
	"sym.__GI_strlen" [shape=oval]
	"sym.__mmap" [shape=oval]
	"mmap" [shape=rectangle,style=filled,color=green]
	"sym.__memcpy_generic" [shape=oval]
	"sym.__aarch64_swp8_acq" [shape=oval]
	"sym.munmap" [shape=oval]
	"munmap" [shape=rectangle,style=filled,color=green]
	"sym.__GI___syscall_error" [shape=oval]
	"sym.abort" [shape=oval]
	"sym.__libc_dlsym" [shape=oval,style=filled,color=red]
	"sym.__libc_dlclose" [shape=oval]
	"sym.__lll_lock_wait_private" [shape=oval]
	"sym.__aarch64_swp4_acq" [shape=oval]
	"sym.__libc_fatal" [shape=oval]
	"sym.__libc_assert_fail" [shape=oval]
	"sym._itoa_word" [shape=oval]
	"sym._IO_file_fopen" [shape=oval]
	"sym._IO_file_open" [shape=oval,style=filled,color=red]
	"sym.__open64" [shape=oval]
	"openat" [shape=rectangle,style=filled,color=green]
	"sym.__GI___pthread_enable_asynccancel" [shape=oval]
	"sym.__GI___pthread_disable_asynccancel" [shape=oval]
	"sym.__close_nocancel" [shape=oval]
	"close" [shape=rectangle,style=filled,color=green]
	"sym.__open64_nocancel" [shape=oval]
	"sym._IO_vtable_check" [shape=oval]
	"sym._dl_addr" [shape=oval]
	"sym.pthread_mutex_lock" [shape=oval]
	"sym.imp._dl_find_dso_for_object" [shape=oval,style=filled,color=orange]
	"sym.pthread_mutex_unlock" [shape=oval]
	"sym.strstr" [shape=oval]
	"sym.__memset_generic" [shape=oval]
	"sym.__wcsmbs_named_conv" [shape=oval]
	"sym.__gconv_find_transform" [shape=oval]
	"sym.__gconv_load_conf" [shape=oval]
	"sym.pthread_once" [shape=oval]
	"sym.__pthread_once_slow" [shape=oval,style=filled,color=red]
	"sym._pthread_cleanup_push" [shape=oval]
	"sym._pthread_cleanup_pop" [shape=oval]
	"sym.__gconv_lookup_cache" [shape=oval]
	"sym.find_module_idx" [shape=oval]
	"sym.__hash_string" [shape=oval]
	"sym.strcmp" [shape=oval]
	"sym.find_module.constprop.0" [shape=oval,style=filled,color=red]
	"sym.__gconv_find_shlib" [shape=oval]
	"sym.tfind" [shape=oval]
	"sym.__tsearch" [shape=oval,style=filled,color=red]
	"sym.maybe_split_for_insert.isra.0" [shape=oval]
	"sym.__twalk_r" [shape=oval]
	"sym.trecurse_r" [shape=oval,style=filled,color=red]
	"fcn.00026e40" [shape=oval]
	"sym._dl_mcount_wrapper_check" [shape=oval]
	"sym.__gconv_get_builtin_trans" [shape=oval]
	"sym.__gconv_release_step" [shape=oval,style=filled,color=red]
	"sym.__gconv_release_shlib" [shape=oval]
	"sym.find_derivation" [shape=oval,style=filled,color=red]
	"sym.__strdup" [shape=oval]
	"sym.__gconv_close_transform" [shape=oval,style=filled,color=red]
	"sym.__gconv_release_cache" [shape=oval]
	"sym._IO_file_close_it" [shape=oval,style=filled,color=red]
	"sym._IO_unsave_markers" [shape=oval]
	"sym._IO_switch_to_main_get_area" [shape=oval]
	"sym._IO_free_wbackup_area" [shape=oval]
	"sym._IO_wsetb" [shape=oval]
	"sym._IO_setb" [shape=oval]
	"sym._IO_un_link" [shape=oval]
	"sym.__GI__IO_un_link.part.0" [shape=oval]
	"sym._IO_wdo_write" [shape=oval]
	"sym.__libio_codecvt_out" [shape=oval,style=filled,color=red]
	"sym._IO_do_write" [shape=oval]
	"sym.new_do_write" [shape=oval,style=filled,color=red]
	"sym._IO_adjust_column" [shape=oval]
	"sym.fopen" -> "sym.__fopen_internal"
	"sym.__fopen_internal" -> "fcn.00026ee0"
	"sym.__fopen_internal" -> "sym._IO_no_init"
	"sym._IO_no_init" -> "sym._IO_old_init"
	"sym.__fopen_internal" -> "sym._IO_new_file_init_internal"
	"sym._IO_new_file_init_internal" -> "sym._IO_link_in"
	"sym._IO_link_in" -> "sym.__libc_cleanup_push_defer"
	"sym.__libc_cleanup_push_defer" -> "sym.__aarch64_cas4_acq"
	"sym._IO_link_in" -> "sym.__aarch64_cas4_acq"
	"sym._IO_link_in" -> "sym.__aarch64_swp4_rel"
	"sym._IO_link_in" -> "sym.__lll_lock_wake_private"
	"sym.__lll_lock_wake_private" -> "futex"
	"sym._IO_link_in" -> "sym.__libc_cleanup_pop_restore"
	"sym.__libc_cleanup_pop_restore" -> "sym.__aarch64_cas4_acq"
	"sym.__libc_cleanup_pop_restore" -> "sym.__pthread_unwind"
	"sym.__pthread_unwind" -> "sym._Unwind_ForcedUnwind"
	"sym._Unwind_ForcedUnwind" -> "sym.__libc_unwind_link_get"
	"sym.__libc_unwind_link_get" -> "sym.__libc_dlopen_mode"
	"sym.__libc_dlopen_mode" -> "sym.dlerror_run"
	"sym.dlerror_run" -> "sym.__stack_chk_fail"
	"sym.__stack_chk_fail" -> "sym.__fortify_fail"
	"sym.__fortify_fail" -> "sym.__libc_message"
	"sym.__libc_message" -> "writev"
	"sym.__libc_message" -> "sym.strchrnul"
	"sym.__libc_message" -> "sym.__GI_strlen"
	"sym.__libc_message" -> "sym.__mmap"
	"sym.__mmap" -> "mmap"
	"sym.__libc_message" -> "sym.__memcpy_generic"
	"sym.__libc_message" -> "sym.__aarch64_swp8_acq"
	"sym.__libc_message" -> "sym.munmap"
	"sym.munmap" -> "munmap"
	"sym.munmap" -> "sym.__GI___syscall_error"
	"sym.__libc_message" -> "sym.abort"
	"sym.__libc_dlopen_mode" -> "sym.__stack_chk_fail"
	"sym.__libc_unwind_link_get" -> "sym.__libc_dlsym"
	"sym.__libc_dlsym" -> "sym.dlerror_run"
	"sym.__libc_dlsym" -> "sym.__stack_chk_fail"
	"sym.__libc_unwind_link_get" -> "sym.__aarch64_cas4_acq"
	"sym.__libc_unwind_link_get" -> "sym.__libc_dlclose"
	"sym.__libc_dlclose" -> "sym.dlerror_run"
	"sym.__libc_unwind_link_get" -> "sym.__aarch64_swp4_rel"
	"sym.__libc_unwind_link_get" -> "sym.__lll_lock_wait_private"
	"sym.__lll_lock_wait_private" -> "futex"
	"sym.__lll_lock_wait_private" -> "sym.__aarch64_swp4_acq"
	"sym.__lll_lock_wait_private" -> "sym.__libc_fatal"
	"sym.__libc_fatal" -> "sym.__libc_message"
	"sym.__libc_unwind_link_get" -> "sym.__lll_lock_wake_private"
	"sym.__libc_unwind_link_get" -> "sym.__libc_assert_fail"
	"sym.__libc_assert_fail" -> "sym._itoa_word"
	"sym.__libc_assert_fail" -> "sym.__libc_message"
	"sym._Unwind_ForcedUnwind" -> "sym.__libc_fatal"
	"sym.__pthread_unwind" -> "sym.abort"
	"sym._IO_link_in" -> "sym.__lll_lock_wait_private"
	"sym._IO_link_in" -> "sym.__stack_chk_fail"
	"sym.__fopen_internal" -> "sym._IO_file_fopen"
	"sym._IO_file_fopen" -> "sym._IO_file_open"
	"sym._IO_file_open" -> "sym.__open64"
	"sym.__open64" -> "openat"
	"sym.__open64" -> "sym.__GI___pthread_enable_asynccancel"
	"sym.__GI___pthread_enable_asynccancel" -> "sym.__aarch64_cas4_acq"
	"sym.__GI___pthread_enable_asynccancel" -> "sym.__pthread_unwind"
	"sym.__open64" -> "sym.__GI___pthread_disable_asynccancel"
	"sym.__GI___pthread_disable_asynccancel" -> "futex"
	"sym.__GI___pthread_disable_asynccancel" -> "sym.__aarch64_cas4_acq"
	"sym.__GI___pthread_disable_asynccancel" -> "sym.__libc_fatal"
	"sym.__open64" -> "sym.__stack_chk_fail"
	"sym._IO_file_open" -> "sym._IO_link_in"
	"sym._IO_file_open" -> "sym.__close_nocancel"
	"sym.__close_nocancel" -> "close"
	"sym._IO_file_open" -> "sym.__open64_nocancel"
	"sym.__open64_nocancel" -> "openat"
	"sym.__open64_nocancel" -> "sym.__stack_chk_fail"
	"sym._IO_file_open" -> "sym._IO_vtable_check"
	"sym._IO_vtable_check" -> "sym._dl_addr"
	"sym._dl_addr" -> "sym.pthread_mutex_lock"
	"sym._dl_addr" -> "sym.imp._dl_find_dso_for_object"
	"sym._dl_addr" -> "sym.pthread_mutex_unlock"
	"sym._IO_vtable_check" -> "sym.__libc_fatal"
	"sym._IO_vtable_check" -> "sym.__stack_chk_fail"
	"sym._IO_file_fopen" -> "sym.strstr"
	"sym._IO_file_fopen" -> "sym.strchrnul"
	"sym._IO_file_fopen" -> "fcn.00026ee0"
	"sym._IO_file_fopen" -> "sym.__memcpy_generic"
	"sym._IO_file_fopen" -> "sym.__memset_generic"
	"sym._IO_file_fopen" -> "sym.__wcsmbs_named_conv"
	"sym.__wcsmbs_named_conv" -> "sym.__gconv_find_transform"
	"sym.__gconv_find_transform" -> "sym.__gconv_load_conf"
	"sym.__gconv_load_conf" -> "sym.pthread_once"
	"sym.pthread_once" -> "sym.__pthread_once_slow"
	"sym.__pthread_once_slow" -> "futex"
	"sym.__pthread_once_slow" -> "sym.__aarch64_cas4_acq"
	"sym.__pthread_once_slow" -> "sym.__libc_fatal"
	"sym.__pthread_once_slow" -> "sym._pthread_cleanup_push"
	"sym.__pthread_once_slow" -> "sym._pthread_cleanup_pop"
	"sym.__pthread_once_slow" -> "sym.__stack_chk_fail"
	"sym.__gconv_find_transform" -> "sym.__aarch64_cas4_acq"
	"sym.__gconv_find_transform" -> "sym.__gconv_lookup_cache"
	"sym.__gconv_lookup_cache" -> "sym.find_module_idx"
	"sym.find_module_idx" -> "sym.__hash_string"
	"sym.find_module_idx" -> "sym.strcmp"
	"sym.__gconv_lookup_cache" -> "fcn.00026ee0"
	"sym.__gconv_lookup_cache" -> "sym.find_module.constprop.0"
	"sym.find_module.constprop.0" -> "sym.__GI_strlen"
	"sym.find_module.constprop.0" -> "sym.__memcpy_generic"
	"sym.find_module.constprop.0" -> "sym.__gconv_find_shlib"
	"sym.__gconv_find_shlib" -> "sym.tfind"
	"sym.__gconv_find_shlib" -> "sym.__libc_dlopen_mode"
	"sym.__gconv_find_shlib" -> "sym.__libc_dlsym"
	"sym.__gconv_find_shlib" -> "sym.__GI_strlen"
	"sym.__gconv_find_shlib" -> "fcn.00026ee0"
	"sym.__gconv_find_shlib" -> "sym.__memcpy_generic"
	"sym.__gconv_find_shlib" -> "sym.__tsearch"
	"sym.__tsearch" -> "sym.maybe_split_for_insert.isra.0"
	"sym.__tsearch" -> "fcn.00026ee0"
	"sym.__gconv_find_shlib" -> "sym.__twalk_r"
	"sym.__twalk_r" -> "sym.trecurse_r"
	"sym.trecurse_r" -> "sym.trecurse_r"
	"sym.__gconv_find_shlib" -> "fcn.00026e40"
	"sym.__gconv_find_shlib" -> "sym.__libc_assert_fail"
	"sym.find_module.constprop.0" -> "sym._dl_mcount_wrapper_check"
	"sym.find_module.constprop.0" -> "sym.__stack_chk_fail"
	"sym.__gconv_lookup_cache" -> "sym.__gconv_get_builtin_trans"
	"sym.__gconv_get_builtin_trans" -> "sym.strcmp"
	"sym.__gconv_get_builtin_trans" -> "sym.__libc_assert_fail"
	"sym.__gconv_lookup_cache" -> "fcn.00026e40"
	"sym.__gconv_lookup_cache" -> "sym.__gconv_release_step"
	"sym.__gconv_release_step" -> "sym._dl_mcount_wrapper_check"
	"sym.__gconv_release_step" -> "sym.__gconv_release_shlib"
	"sym.__gconv_release_shlib" -> "sym.__twalk_r"
	"sym.__gconv_release_step" -> "sym.__libc_assert_fail"
	"sym.__gconv_lookup_cache" -> "sym.__stack_chk_fail"
	"sym.__gconv_find_transform" -> "sym.tfind"
	"sym.__gconv_find_transform" -> "sym.find_derivation"
	"sym.find_derivation" -> "sym.tfind"
	"sym.find_derivation" -> "sym.__gconv_find_shlib"
	"sym.find_derivation" -> "sym._dl_mcount_wrapper_check"
	"sym.find_derivation" -> "sym.__GI_strlen"
	"sym.find_derivation" -> "sym.strcmp"
	"sym.find_derivation" -> "fcn.00026ee0"
	"sym.find_derivation" -> "sym.__gconv_get_builtin_trans"
	"sym.find_derivation" -> "sym.__strdup"
	"sym.__strdup" -> "sym.__GI_strlen"
	"sym.__strdup" -> "fcn.00026ee0"
	"sym.__strdup" -> "sym.__memcpy_generic"
	"sym.find_derivation" -> "sym.__memcpy_generic"
	"sym.find_derivation" -> "sym.__tsearch"
	"sym.find_derivation" -> "sym.__gconv_release_step"
	"sym.find_derivation" -> "fcn.00026e40"
	"sym.find_derivation" -> "sym.__stack_chk_fail"
	"sym.__gconv_find_transform" -> "sym.__aarch64_swp4_rel"
	"sym.__gconv_find_transform" -> "sym.__lll_lock_wake_private"
	"sym.__gconv_find_transform" -> "sym.strcmp"
	"sym.__gconv_find_transform" -> "sym.__lll_lock_wait_private"
	"sym.__gconv_find_transform" -> "sym.__stack_chk_fail"
	"sym.__wcsmbs_named_conv" -> "sym.__gconv_close_transform"
	"sym.__gconv_close_transform" -> "sym.__aarch64_cas4_acq"
	"sym.__gconv_close_transform" -> "sym._dl_mcount_wrapper_check"
	"sym.__gconv_close_transform" -> "sym.__gconv_release_shlib"
	"sym.__gconv_close_transform" -> "sym.__libc_assert_fail"
	"sym.__gconv_close_transform" -> "sym.__gconv_release_cache"
	"sym.__gconv_release_cache" -> "fcn.00026e40"
	"sym.__gconv_close_transform" -> "sym.__aarch64_swp4_rel"
	"sym.__gconv_close_transform" -> "sym.__lll_lock_wake_private"
	"sym.__gconv_close_transform" -> "sym.__lll_lock_wait_private"
	"sym.__wcsmbs_named_conv" -> "sym.__stack_chk_fail"
	"sym._IO_file_fopen" -> "fcn.00026e40"
	"sym._IO_file_fopen" -> "sym._IO_file_close_it"
	"sym._IO_file_close_it" -> "sym._IO_unsave_markers"
	"sym._IO_unsave_markers" -> "fcn.00026e40"
	"sym._IO_unsave_markers" -> "sym._IO_switch_to_main_get_area"
	"sym._IO_file_close_it" -> "sym._IO_free_wbackup_area"
	"sym._IO_free_wbackup_area" -> "fcn.00026e40"
	"sym._IO_file_close_it" -> "sym._IO_wsetb"
	"sym._IO_wsetb" -> "fcn.00026e40"
	"sym._IO_file_close_it" -> "sym._IO_setb"
	"sym._IO_setb" -> "fcn.00026e40"
	"sym._IO_file_close_it" -> "sym._IO_un_link"
	"sym._IO_un_link" -> "sym.__GI__IO_un_link.part.0"
	"sym.__GI__IO_un_link.part.0" -> "sym.__libc_cleanup_push_defer"
	"sym.__GI__IO_un_link.part.0" -> "sym.__aarch64_cas4_acq"
	"sym.__GI__IO_un_link.part.0" -> "sym.__libc_cleanup_pop_restore"
	"sym.__GI__IO_un_link.part.0" -> "sym.__aarch64_swp4_rel"
	"sym.__GI__IO_un_link.part.0" -> "sym.__lll_lock_wake_private"
	"sym.__GI__IO_un_link.part.0" -> "sym.__lll_lock_wait_private"
	"sym.__GI__IO_un_link.part.0" -> "sym.__stack_chk_fail"
	"sym._IO_file_close_it" -> "sym._IO_wdo_write"
	"sym._IO_wdo_write" -> "sym.__libio_codecvt_out"
	"sym.__libio_codecvt_out" -> "sym._dl_mcount_wrapper_check"
	"sym.__libio_codecvt_out" -> "sym.__stack_chk_fail"
	"sym._IO_wdo_write" -> "sym._IO_do_write"
	"sym._IO_do_write" -> "sym.new_do_write"
	"sym.new_do_write" -> "sym._IO_adjust_column"
	"sym.new_do_write" -> "sym._IO_vtable_check"
	"sym._IO_wdo_write" -> "sym.__stack_chk_fail"
	"sym._IO_file_close_it" -> "sym._IO_do_write"
	"sym._IO_file_close_it" -> "sym._IO_vtable_check"
	"sym._IO_file_fopen" -> "sym.__stack_chk_fail"
	"sym._IO_file_fopen" -> "sym.__libc_assert_fail"
	"sym.__fopen_internal" -> "sym._IO_un_link"
	"sym.__fopen_internal" -> "fcn.00026e40"
}
